<?xml version="1.0" standalone="no"?>
<!DOCTYPE svg PUBLIC "-//W3C//DTD SVG 1.1//EN" "http://www.w3.org/Graphics/SVG/1.1/DTD/svg11.dtd" >
<svg>
<metadata>
Created by FontForge 20090622 at Tue Nov 14 13:31:51 2017
 By deploy user
&#194;&#169; 1990-91 Apple Computer Inc. &#194;&#169; 1981 Linotype AG &#194;&#169; 1990-91 Type Solutions Inc.
</metadata>
<defs>
<font id="Helvetica" horiz-adv-x="1139" >
  <font-face 
    font-family="Helvetica"
    font-weight="400"
    font-stretch="normal"
    units-per-em="2048"
    panose-1="2 11 5 0 0 0 0 0 0 0"
    ascent="1638"
    descent="-410"
    x-height="1071"
    cap-height="1469"
    bbox="-342 -461 2036 1999"
    underline-thickness="101"
    underline-position="-105"
    unicode-range="U+0008-U+F002"
  />
<missing-glyph horiz-adv-x="1536" 
d="M256 0v1280h1024v-1280h-1024zM1248 32v1216h-960v-1216h960z" />
    <glyph glyph-name=".notdef" horiz-adv-x="1536" 
d="M256 0v1280h1024v-1280h-1024zM1248 32v1216h-960v-1216h960z" />
    <glyph glyph-name="glyph1" horiz-adv-x="0" 
 />
    <glyph glyph-name="glyph2" horiz-adv-x="569" 
 />
    <glyph glyph-name="space" unicode="&#x9;" horiz-adv-x="569" 
 />
    <glyph glyph-name="exclam" unicode="!" horiz-adv-x="569" 
d="M237 1469h203v-483l-49 -636h-102l-52 636v483zM237 208h199v-208h-199v208z" />
    <glyph glyph-name="quotedbl" unicode="&#x22;" horiz-adv-x="727" 
d="M606 1469l-30 -588h-121l-31 588h182zM263 1469l-29 -588h-121l-31 588h181z" />
    <glyph glyph-name="numbersign" unicode="#" 
d="M30 561h233l94 344h-232l31 116h232l119 448h149l-121 -448h221l123 448h147l-121 -448h232l-31 -116h-232l-95 -344h233l-31 -116h-230l-123 -445h-147l121 445h-223l-119 -445h-149l121 445h-232zM630 561l95 344h-221l-92 -344h218z" />
    <glyph glyph-name="dollar" unicode="$" 
d="M847 229q34 60 34 139q0 125 -92 190q-53 38 -178 72v-526q171 8 236 125zM514 836v470q-131 -5 -186.5 -80t-55.5 -157q0 -99 65.5 -155t176.5 -78zM516 1455v133h95v-131q199 -14 305.5 -117.5t111.5 -273.5h-175q-7 76 -41 131q-63 101 -201 106v-486
q232 -65 315 -122q135 -94 135 -278q0 -266 -173 -378q-96 -62 -277 -82v-194h-95v194q-291 19 -395 206q-57 101 -57 273h177q8 -137 43 -200q62 -113 230 -127v545q-216 41 -319 137t-103 266q0 152 111.5 274t312.5 124z" />
    <glyph glyph-name="percent" unicode="%" horiz-adv-x="1821" 
d="M1744 348q0 -144 -102 -246t-246 -102q-145 0 -247 102t-102 246t102 246t247 102q144 0 246 -102t102 -246zM1251 1426h111l-801 -1464h-111zM621 1040q0 85 -60.5 145.5t-146.5 60.5q-85 0 -145.5 -60t-60.5 -146q0 -85 60.5 -145.5t145.5 -60.5q86 0 146.5 60.5
t60.5 145.5zM763 1040q0 -144 -102 -246t-247 -102q-144 0 -246 102t-102 246t102 246.5t246 102.5q145 0 247 -102.5t102 -246.5zM1602 348q0 85 -60.5 145.5t-145.5 60.5q-86 0 -146.5 -60.5t-60.5 -145.5t60.5 -145.5t146.5 -60.5q85 0 145.5 60.5t60.5 145.5z" />
    <glyph glyph-name="ampersand" unicode="&#x26;" horiz-adv-x="1366" 
d="M716 1007q59 68 59 151q0 65 -43 112t-116 47q-111 0 -154 -74q-22 -38 -22 -83q0 -61 33.5 -117t111.5 -145q95 67 131 109zM853 289l-332 405q-141 -94 -184 -144q-66 -75 -66 -183q0 -117 85.5 -180t182.5 -63q111 0 191 51t123 114zM265 1138q0 142 96 235.5
t257 93.5q153 0 239 -87t86 -208q0 -141 -89 -247q-52 -62 -174 -143l268 -320q27 80 37.5 119.5t21.5 110.5h171q-17 -141 -68 -270q-43 -109 -50 -109q-1 0 -1 4l261 -317h-232l-138 168q-82 -89 -150 -130q-119 -72 -274 -72q-229 0 -333 123.5t-104 278.5q0 167 101 279
q62 68 231 170q-93 107 -124.5 180t-31.5 141z" />
    <glyph glyph-name="quotesingle" unicode="'" horiz-adv-x="391" 
d="M338 1469l-33 -588h-116l-33 588h182z" />
    <glyph glyph-name="parenleft" unicode="(" horiz-adv-x="682" 
d="M606 1493q-157 -305 -204 -449q-71 -219 -71 -506q0 -290 81 -530q50 -148 197 -426h-121q-146 228 -181 291t-76 171q-56 148 -78 316q-11 87 -11 166q0 296 93 527q59 147 246 440h125z" />
    <glyph glyph-name="parenright" unicode=")" horiz-adv-x="682" 
d="M71 -418q159 310 205 452q70 215 70 504t-81 529q-50 148 -197 426h121q154 -246 186.5 -303.5t70.5 -158.5q48 -125 68.5 -247t20.5 -235q0 -296 -94 -528q-59 -149 -245 -439h-125z" />
    <glyph glyph-name="asterisk" unicode="*" horiz-adv-x="797" 
d="M450 1469v-223l218 76l40 -111l-218 -71l135 -188l-99 -71l-131 195l-132 -195l-102 71l137 188l-220 71l40 111l216 -78v225h116z" />
    <glyph glyph-name="plus" unicode="+" horiz-adv-x="1196" 
d="M92 438v168h436v439h171v-439h436v-168h-436v-438h-171v438h-436z" />
    <glyph glyph-name="comma" unicode="," horiz-adv-x="569" 
d="M170 -209q69 12 97 97q15 45 15 87q0 7 -0.5 12.5t-2.5 12.5h-109v218h214v-202q0 -119 -48 -209t-166 -111v95z" />
    <glyph glyph-name="hyphen" unicode="-" horiz-adv-x="682" 
d="M85 663h502v-185h-502v185z" />
    <glyph glyph-name="period" unicode="." horiz-adv-x="569" 
d="M175 218h209v-218h-209v218z" />
    <glyph glyph-name="slash" unicode="/" horiz-adv-x="569" 
d="M466 1469h152l-466 -1469h-152z" />
    <glyph glyph-name="zero" unicode="0" 
d="M956 1203q96 -177 96 -485q0 -292 -87 -483q-126 -274 -412 -274q-258 0 -384 224q-105 187 -105 502q0 244 63 419q118 326 427 326q278 0 402 -229zM858 711q0 244 -60 401.5t-233 157.5q-159 0 -232.5 -149.5t-73.5 -440.5q0 -219 47 -352q72 -203 246 -203
q140 0 223 124t83 462z" />
    <glyph glyph-name="one" unicode="1" 
d="M196 1014v138q195 19 272 63.5t115 210.5h142v-1426h-192v1014h-337z" />
    <glyph glyph-name="two" unicode="2" 
d="M400 571l192 111q129 75 181 128q82 83 82 190q0 125 -75 198.5t-200 73.5q-185 0 -256 -140q-38 -75 -42 -208h-183q3 187 69 305q117 208 413 208q246 0 359.5 -133t113.5 -296q0 -172 -121 -294q-70 -71 -251 -172l-137 -76q-98 -54 -154 -103q-100 -87 -126 -193h782
v-170h-983q10 185 76.5 322t259.5 249z" />
    <glyph glyph-name="three" unicode="3" 
d="M49 440h188q12 -139 52 -202q70 -113 253 -113q142 0 228 76t86 196q0 148 -90.5 207t-251.5 59h-36l-38 -2v159q28 -3 47 -4t41 -1q101 0 166 32q114 56 114 200q0 107 -76 165t-177 58q-180 0 -249 -120q-38 -66 -43 -188h-178q0 160 64 272q110 200 387 200
q219 0 339 -97.5t120 -282.5q0 -132 -71 -214q-44 -51 -114 -80q113 -31 176.5 -119.5t63.5 -216.5q0 -205 -135 -334t-383 -129q-254 0 -368.5 139.5t-114.5 339.5z" />
    <glyph glyph-name="four" unicode="4" 
d="M677 507v649l-459 -649h459zM680 0v350h-628v176l656 910h152v-929h211v-157h-211v-350h-180z" />
    <glyph glyph-name="five" unicode="5" 
d="M253 365q18 -154 143 -213q64 -30 148 -30q160 0 237 102t77 226q0 150 -91.5 232t-219.5 82q-93 0 -159.5 -36t-113.5 -100l-156 9l109 771h744v-174h-609l-61 -398q50 38 95 57q80 33 185 33q197 0 334 -127t137 -322q0 -203 -125.5 -358t-400.5 -155
q-175 0 -309.5 98.5t-150.5 302.5h187z" />
    <glyph glyph-name="six" unicode="6" 
d="M1028 1057h-178q-16 85 -51 133q-65 90 -197 90q-151 0 -240 -139.5t-99 -399.5q62 91 156 136q86 40 192 40q180 0 314 -115t134 -343q0 -195 -127 -345.5t-362 -150.5q-201 0 -347 152.5t-146 513.5q0 267 65 453q125 356 457 356q240 0 334.5 -124.5t94.5 -256.5z
M869 444q0 110 -63 209.5t-229 99.5q-116 0 -203.5 -77t-87.5 -232q0 -136 79.5 -228.5t220.5 -92.5q142 0 212.5 95.5t70.5 225.5z" />
    <glyph glyph-name="seven" unicode="7" 
d="M1071 1408v-157q-69 -67 -183.5 -233t-202.5 -358q-87 -187 -132 -341q-29 -99 -75 -319h-199q68 410 300 816q137 238 288 411h-792v181h996z" />
    <glyph glyph-name="eight" unicode="8" 
d="M810 1057q0 80 -64 147t-195 67q-130 0 -188 -67t-58 -157q0 -101 75 -158t177 -57q119 0 186 66.5t67 158.5zM858 392q0 139 -85 211t-218 72q-129 0 -210.5 -73.5t-81.5 -203.5q0 -112 74.5 -193.5t230.5 -81.5q125 0 207.5 67.5t82.5 201.5zM195 838q-79 80 -79 208
q0 160 116 275t329 115q206 0 323 -108.5t117 -253.5q0 -134 -68 -217q-38 -47 -118 -92q89 -41 140 -94q95 -100 95 -260q0 -189 -127 -320.5t-359 -131.5q-209 0 -353.5 113.5t-144.5 329.5q0 127 62 219.5t184 141.5q-75 32 -117 75z" />
    <glyph glyph-name="nine" unicode="9" 
d="M272 346q8 -149 115 -206q55 -30 124 -30q129 0 220 107.5t129 436.5q-60 -95 -148.5 -133.5t-190.5 -38.5q-207 0 -327.5 129t-120.5 332q0 195 119 343t351 148q313 0 432 -282q66 -155 66 -388q0 -263 -79 -466q-131 -338 -444 -338q-210 0 -319 110t-109 276h182z
M829 957q0 158 -79.5 235.5t-202.5 77.5q-132 0 -209.5 -88.5t-77.5 -236.5q0 -140 68 -222.5t217 -82.5q107 0 195.5 70.5t88.5 246.5z" />
    <glyph glyph-name="colon" unicode=":" horiz-adv-x="569" 
d="M227 1057h209v-218h-209v218zM227 218h209v-218h-209v218z" />
    <glyph glyph-name="semicolon" unicode=";" horiz-adv-x="569" 
d="M227 -209q70 13 97 93q14 42 14 92q0 5 -0.5 8.5t-1.5 15.5h-109v218h213v-202q0 -107 -31 -179q-52 -118 -182 -141v95zM227 1057h213v-218h-213v218z" />
    <glyph glyph-name="less" unicode="&#x3c;" horiz-adv-x="1196" 
d="M28 606l1169 458v-180l-956 -361l956 -362v-180l-1169 459v166z" />
    <glyph glyph-name="equal" unicode="=" horiz-adv-x="1196" 
d="M1135 822v-168h-1043v168h1043zM1135 393v-171h-1043v171h1043z" />
    <glyph glyph-name="greater" unicode="&#x3e;" horiz-adv-x="1196" 
d="M1197 438l-1169 -457v180l955 362l-955 361v180l1169 -458v-168z" />
    <glyph glyph-name="question" unicode="?" 
d="M493 208h199v-208h-199v208zM613 1488q197 0 315.5 -112.5t118.5 -287.5q0 -106 -43.5 -172t-175.5 -194q-96 -93 -124.5 -157.5t-28.5 -190.5h-178q0 143 34 230.5t149 200.5l80 79q36 34 58 71q40 65 40 135q0 98 -58.5 170t-193.5 72q-167 0 -231 -124
q-36 -69 -41 -199h-178q0 216 122 347.5t335 131.5z" />
    <glyph glyph-name="at" unicode="@" horiz-adv-x="2079" 
d="M1093 1054q-114 0 -197.5 -134.5t-83.5 -267.5q0 -98 43 -149.5t108 -51.5q135 0 210.5 157.5t75.5 284.5q0 62 -41.5 111.5t-114.5 49.5zM406 218q-181 209 -181 483q0 326 220 554q244 254 655 254q356 0 560 -180q191 -170 191 -441q0 -228 -136.5 -389.5
t-305.5 -161.5q-99 0 -146 47.5t-47 114.5q0 11 2 23t5 25q-53 -115 -134 -162.5t-167 -47.5q-123 0 -199.5 89t-76.5 229q0 199 130.5 351t280.5 152q102 0 168.5 -59t70.5 -142l50 168h147l-133 -438q-15 -51 -22 -82t-7 -55q0 -45 27.5 -65.5t62.5 -20.5q114 0 204.5 119
t90.5 311q0 232 -162 364.5t-436 132.5q-380 0 -581 -222q-172 -189 -172 -475q0 -250 164 -420q192 -201 547 -201q166 0 309 52.5t262 141.5l66 -90q-90 -80 -269 -150t-394 -70q-418 0 -644 261z" />
    <glyph glyph-name="A" unicode="A" horiz-adv-x="1366" 
d="M910 602l-223 649l-237 -649h460zM583 1469h225l533 -1469h-218l-149 440h-581l-159 -440h-204z" />
    <glyph glyph-name="B" unicode="B" horiz-adv-x="1366" 
d="M708 848q126 0 196 35q110 55 110 198q0 144 -117 194q-66 28 -196 28h-355v-455h362zM775 170q183 0 261 106q49 67 49 162q0 160 -143 218q-76 31 -201 31h-395v-517h429zM151 1469h631q258 0 367 -154q64 -91 64 -210q0 -139 -79 -228q-41 -47 -118 -86
q113 -43 169 -97q99 -96 99 -265q0 -142 -89 -257q-133 -172 -423 -172h-621v1469z" />
    <glyph glyph-name="C" unicode="C" horiz-adv-x="1479" 
d="M1379 1028h-194q-33 142 -131.5 225t-276.5 83q-217 0 -350.5 -152.5t-133.5 -467.5q0 -258 120.5 -418.5t359.5 -160.5q220 0 335 169q61 89 91 234h194q-26 -232 -172 -389q-175 -189 -472 -189q-256 0 -430 155q-229 205 -229 633q0 325 172 533q186 226 513 226
q279 0 433 -147t171 -334z" />
    <glyph glyph-name="D" unicode="D" horiz-adv-x="1479" 
d="M720 170q101 0 166 21q116 39 190 150q59 89 85 228q15 83 15 154q0 273 -108.5 424t-349.5 151h-353v-1128h355zM165 1469h595q303 0 470 -215q149 -194 149 -497q0 -234 -88 -423q-155 -334 -533 -334h-593v1469z" />
    <glyph glyph-name="E" unicode="E" horiz-adv-x="1366" 
d="M175 1469h1071v-180h-877v-446h811v-170h-811v-498h892v-175h-1086v1469z" />
    <glyph glyph-name="F" unicode="F" horiz-adv-x="1251" 
d="M175 1469h1019v-180h-820v-446h721v-175h-721v-668h-199v1469z" />
    <glyph glyph-name="G" unicode="G" horiz-adv-x="1593" 
d="M1149 1427q219 -115 268 -403h-197q-36 161 -149 234.5t-285 73.5q-204 0 -343.5 -153t-139.5 -456q0 -262 115 -426.5t375 -164.5q199 0 329.5 115.5t133.5 373.5h-460v165h645v-786h-128l-48 189q-101 -111 -179 -154q-131 -74 -333 -74q-261 0 -449 169
q-205 212 -205 582q0 369 200 587q190 208 492 208q207 0 358 -80z" />
    <glyph glyph-name="H" unicode="H" horiz-adv-x="1479" 
d="M161 1469h201v-607h764v607h201v-1469h-201v687h-764v-687h-201v1469z" />
    <glyph glyph-name="I" unicode="I" horiz-adv-x="569" 
d="M201 1469h201v-1469h-201v1469z" />
    <glyph glyph-name="J" unicode="J" horiz-adv-x="1024" 
d="M877 438q0 -186 -55 -289q-102 -188 -388 -188q-165 0 -282 89.5t-117 318.5v105h187v-105q0 -120 53.5 -180.5t166.5 -60.5q159 0 208 109q30 67 30 253v979h197v-1031z" />
    <glyph glyph-name="K" unicode="K" horiz-adv-x="1366" 
d="M156 1469h194v-716l716 716h275l-611 -592l628 -877h-259l-514 737l-235 -225v-512h-194v1469z" />
    <glyph glyph-name="L" unicode="L" 
d="M156 1469h199v-1294h744v-175h-943v1469z" />
    <glyph glyph-name="M" unicode="M" horiz-adv-x="1706" 
d="M151 1469h285l422 -1242l419 1242h282v-1469h-189v867q0 45 2 149t2 223l-419 -1239h-197l-422 1239v-45q0 -54 3 -164q2 -111 2 -163v-867h-190v1469z" />
    <glyph glyph-name="N" unicode="N" horiz-adv-x="1479" 
d="M156 1469h235l742 -1190v1190h189v-1469h-223l-753 1189v-1189h-190v1469z" />
    <glyph glyph-name="O" unicode="O" horiz-adv-x="1593" 
d="M1366 1259q146 -195 146 -499q0 -329 -167 -547q-196 -256 -559 -256q-339 0 -533 224q-173 216 -173 546q0 298 148 510q190 272 562 272q389 0 576 -250zM1308 757q0 259 -135.5 417t-370.5 158q-228 0 -372 -156.5t-144 -461.5q0 -244 123.5 -411.5t400.5 -167.5
q263 0 380.5 188.5t117.5 433.5z" />
    <glyph glyph-name="P" unicode="P" horiz-adv-x="1366" 
d="M175 1469h661q196 0 316 -110.5t120 -310.5q0 -172 -107 -299.5t-329 -127.5h-462v-621h-199v1469zM951 1267q-66 31 -181 31h-396v-509h396q134 0 217.5 57t83.5 201q0 162 -120 220z" />
    <glyph glyph-name="Q" unicode="Q" horiz-adv-x="1593" 
d="M1500 4l-100 -121l-227 173q-82 -45 -177.5 -72t-208.5 -27q-342 0 -536 224q-171 218 -171 546q0 298 148 510q190 272 562 272q389 0 576 -250q146 -195 146 -499q0 -142 -35 -273q-53 -200 -179 -326zM1021 177l-161 126l100 123l192 -149q91 104 123.5 233t32.5 247
q0 259 -135.5 417t-370.5 158q-238 0 -377 -151.5t-139 -466.5q0 -265 133.5 -422t391.5 -157q62 0 116 8.5t94 33.5z" />
    <glyph glyph-name="R" unicode="R" horiz-adv-x="1479" 
d="M839 796q140 0 221.5 56t81.5 202q0 157 -114 214q-61 30 -163 30h-486v-502h460zM180 1469h680q168 0 277 -49q207 -94 207 -347q0 -132 -54.5 -216t-152.5 -135q86 -35 129.5 -92t48.5 -185l7 -197q3 -84 14 -125q18 -70 64 -90v-33h-244q-10 19 -16 49t-10 116
l-12 245q-7 144 -107 193q-57 27 -179 27h-453v-630h-199v1469z" />
    <glyph glyph-name="S" unicode="S" horiz-adv-x="1366" 
d="M286 474q7 -125 59 -203q99 -146 349 -146q112 0 204 32q178 62 178 222q0 120 -75.5 170.5t-237.5 87.5l-199 45q-195 44 -276 97q-140 92 -140 275q0 198 137 325t388 127q231 0 392.5 -111.5t161.5 -356.5h-187q-15 118 -64 181q-91 115 -309 115q-176 0 -253 -74
t-77 -172q0 -108 90 -158q59 -32 267 -80l206 -47q149 -34 230 -93q140 -103 140 -299q0 -244 -177.5 -349t-412.5 -105q-274 0 -429 140q-152 136 -152 368v9h187z" />
    <glyph glyph-name="T" unicode="T" horiz-adv-x="1251" 
d="M1225 1469v-175h-495v-1294h-202v1294h-495v175h1192z" />
    <glyph glyph-name="U" unicode="U" horiz-adv-x="1479" 
d="M372 1469v-908q0 -160 60 -266q89 -160 300 -160q253 0 344 173q49 94 49 253v908h202v-825q0 -271 -73 -417q-134 -266 -506 -266t-505 266q-73 146 -73 417v825h202z" />
    <glyph glyph-name="V" unicode="V" horiz-adv-x="1366" 
d="M272 1469l422 -1251l417 1251h223l-536 -1469h-211l-535 1469h220z" />
    <glyph glyph-name="W" unicode="W" horiz-adv-x="1933" 
d="M253 1469l277 -1195l332 1195h216l332 -1195l277 1195h218l-386 -1469h-209l-339 1218l-341 -1218h-209l-384 1469h216z" />
    <glyph glyph-name="X" unicode="X" horiz-adv-x="1366" 
d="M282 0h-240l526 753l-493 716h249l375 -562l372 562h237l-493 -716l517 -753h-247l-396 604z" />
    <glyph glyph-name="Y" unicode="Y" horiz-adv-x="1366" 
d="M42 1469h232l422 -706l422 706h233l-555 -877v-592h-199v592z" />
    <glyph glyph-name="Z" unicode="Z" horiz-adv-x="1251" 
d="M47 165l901 1129h-835v175h1091v-171l-906 -1123h906v-175h-1157v165z" />
    <glyph glyph-name="bracketleft" unicode="[" horiz-adv-x="569" 
d="M128 1479h384v-147h-214v-1588h214v-147h-384v1882z" />
    <glyph glyph-name="backslash" unicode="\" horiz-adv-x="569" 
d="M87 1469l571 -1469h-156l-571 1469h156z" />
    <glyph glyph-name="bracketright" unicode="]" horiz-adv-x="569" 
d="M47 -256h213v1588h-213v147h384v-1882h-384v147z" />
    <glyph glyph-name="asciicircum" unicode="^" horiz-adv-x="961" 
d="M625 1469l353 -863h-163l-266 662l-265 -662h-164l351 863h154z" />
    <glyph glyph-name="underscore" unicode="_" 
d="M0 -256v101h1139v-101h-1139z" />
    <glyph glyph-name="grave" unicode="`" horiz-adv-x="682" 
d="M350 1213h-137l-268 289h223z" />
    <glyph glyph-name="a" unicode="a" 
d="M462 117q95 0 184 44q150 73 150 239v145q-33 -21 -85 -35t-102 -20l-109 -14q-98 -13 -147 -41q-83 -47 -83 -150q0 -78 57 -123t135 -45zM706 649q62 8 83 52q12 24 12 69q0 92 -65.5 133.5t-187.5 41.5q-141 0 -200 -76q-33 -42 -43 -125h-168q5 198 128.5 275.5
t286.5 77.5q189 0 306.5 -72t117.5 -224v-617q0 -28 11.5 -45t48.5 -17q12 0 27 1.5t32 4.5v-133q-42 -12 -64 -15t-60 -3q-93 0 -135 66q-22 35 -31 99q-55 -72 -158 -125t-227 -53q-149 0 -243.5 90.5t-94.5 226.5q0 149 93 231t244 101z" />
    <glyph glyph-name="b" unicode="b" 
d="M118 1474h175v-533q59 77 141 117.5t178 40.5q200 0 324.5 -137.5t124.5 -405.5q0 -254 -123 -422t-341 -168q-122 0 -206 59q-50 35 -107 112v-137h-166v1474zM877 547q0 169 -72.5 280t-213.5 111q-123 0 -215.5 -91t-92.5 -300q0 -151 38 -245q71 -177 265 -177
q146 0 218.5 116t72.5 306z" />
    <glyph glyph-name="c" unicode="c" horiz-adv-x="1024" 
d="M976 711h-175q-16 99 -73 164.5t-183 65.5q-172 0 -246 -168q-48 -109 -48 -269q0 -161 68 -271t214 -110q112 0 177.5 68.5t90.5 187.5h175q-30 -213 -150 -311.5t-307 -98.5q-210 0 -335 153.5t-125 383.5q0 282 137 439t349 157q181 0 294.5 -88t136.5 -303z" />
    <glyph glyph-name="d" unicode="d" 
d="M553 119q125 0 205.5 107.5t80.5 308.5q0 203 -83 300.5t-205 97.5q-136 0 -220.5 -104t-84.5 -306q0 -172 73 -288t234 -116zM723 1038q48 -30 109 -105v541h173v-1474h-162v149q-63 -99 -149 -143t-197 -44q-179 0 -310 150.5t-131 400.5q0 234 119.5 405.5
t341.5 171.5q123 0 206 -52z" />
    <glyph glyph-name="e" unicode="e" 
d="M962 903q54 -81 72 -189q16 -74 16 -236h-785q5 -163 77 -261.5t223 -98.5q141 0 225 93q48 54 68 125h177q-7 -59 -46.5 -131.5t-88.5 -118.5q-82 -80 -203 -108q-65 -16 -147 -16q-200 0 -339 145.5t-139 407.5q0 258 140 419t366 161q114 0 221 -53.5t163 -138.5z
M865 621q-11 117 -51 187q-74 130 -247 130q-124 0 -208 -89.5t-89 -227.5h595z" />
    <glyph glyph-name="f" unicode="f" horiz-adv-x="569" 
d="M216 1398q63 92 243 92q17 0 35 -1t41 -3v-164q-28 2 -40 3h-24q-82 0 -98 -42.5t-16 -216.5h178v-142h-180v-924h-178v924h-149v142h149v168q4 112 39 164z" />
    <glyph glyph-name="g" unicode="g" 
d="M730 1028q51 -35 104 -102v135h166v-974q0 -204 -60 -322q-112 -218 -423 -218q-173 0 -291 77.5t-132 242.5h183q13 -72 52 -111q61 -60 192 -60q207 0 271 146q35 80 35 276v31q-54 -82 -130 -122t-201 -40q-174 0 -304.5 123.5t-130.5 408.5q0 269 131.5 420
t317.5 151q126 0 220 -62zM543 931q-190 0 -260 -178q-37 -95 -37 -249q0 -181 73.5 -275.5t197.5 -94.5q194 0 273 175q44 99 44 231q0 199 -82 295t-209 96z" />
    <glyph glyph-name="h" unicode="h" 
d="M132 1474h180v-548q64 81 115 114q87 57 217 57q233 0 316 -163q45 -89 45 -247v-687h-185v675q0 118 -30 173q-49 88 -184 88q-112 0 -203 -77t-91 -291v-568h-180v1474z" />
    <glyph glyph-name="i" unicode="i" horiz-adv-x="455" 
d="M132 1066h183v-1066h-183v1066zM132 1469h183v-204h-183v204z" />
    <glyph glyph-name="j" unicode="j" horiz-adv-x="455" 
d="M312 1261h-180v208h180v-208zM-38 -271q121 4 145.5 21.5t24.5 109.5v1206h180v-1225q0 -117 -38 -175q-63 -98 -239 -98q-13 0 -27.5 1t-45.5 4v156z" />
    <glyph glyph-name="k" unicode="k" horiz-adv-x="1024" 
d="M128 1469h173v-853l462 455h230l-410 -401l433 -670h-230l-334 540l-151 -138v-402h-173v1469z" />
    <glyph glyph-name="l" unicode="l" horiz-adv-x="455" 
d="M137 1469h180v-1469h-180v1469z" />
    <glyph glyph-name="m" unicode="m" horiz-adv-x="1706" 
d="M132 1071h178v-152q64 79 116 115q89 61 202 61q128 0 206 -63q44 -36 80 -106q60 86 141 127.5t182 41.5q216 0 294 -156q42 -84 42 -226v-713h-187v744q0 107 -53.5 147t-130.5 40q-106 0 -182.5 -71t-76.5 -237v-623h-183v699q0 109 -26 159q-41 75 -153 75
q-102 0 -185.5 -79t-83.5 -286v-568h-180v1071z" />
    <glyph glyph-name="n" unicode="n" 
d="M132 1071h171v-152q76 94 161 135t189 41q228 0 308 -159q44 -87 44 -249v-687h-183v675q0 98 -29 158q-48 100 -174 100q-64 0 -105 -13q-74 -22 -130 -88q-45 -53 -58.5 -109.5t-13.5 -161.5v-561h-180v1071z" />
    <glyph glyph-name="o" unicode="o" 
d="M869 553q0 150 -48 244q-76 148 -262 148q-165 0 -240 -126t-75 -304q0 -171 75 -285t238 -114q179 0 245.5 135.5t66.5 301.5zM1057 558q0 -259 -126 -428t-391 -169q-221 0 -351 149.5t-130 401.5q0 270 137 430t368 160q207 0 350 -138t143 -406z" />
    <glyph glyph-name="p" unicode="p" 
d="M877 542q0 128 -37 220q-70 177 -256 177q-187 0 -256 -187q-37 -100 -37 -254q0 -124 37 -211q70 -166 256 -166q126 0 209.5 105.5t83.5 315.5zM118 1066h175v-142q54 73 118 113q91 60 214 60q182 0 309 -139.5t127 -398.5q0 -350 -183 -500q-116 -95 -270 -95
q-121 0 -203 53q-48 30 -107 103v-547h-180v1493z" />
    <glyph glyph-name="q" unicode="q" 
d="M287 288q69 -167 247 -167q188 0 259 176q39 97 39 248q0 139 -43 232q-73 159 -257 159q-117 0 -200.5 -101.5t-83.5 -313.5q0 -139 39 -233zM738 1028q50 -36 96 -106v149h171v-1498h-181v550q-45 -72 -124.5 -114.5t-198.5 -42.5q-171 0 -306 134t-135 408
q0 257 126.5 422t327.5 165q133 0 224 -67z" />
    <glyph glyph-name="r" unicode="r" horiz-adv-x="682" 
d="M137 1071h171v-185q21 54 103 131.5t189 77.5q5 0 17 -1t41 -4v-190q-16 3 -29.5 4t-29.5 1q-136 0 -209 -87.5t-73 -201.5v-616h-180v1071z" />
    <glyph glyph-name="s" unicode="s" horiz-adv-x="1024" 
d="M239 336q8 -90 45 -138q68 -87 236 -87q100 0 176 43.5t76 134.5q0 69 -61 105q-39 22 -154 51l-143 36q-137 34 -202 76q-116 73 -116 202q0 152 109.5 246t294.5 94q242 0 349 -142q65 -87 65 -188v-6h-170q-5 61 -43 111q-62 71 -215 71q-102 0 -154.5 -39t-52.5 -103
q0 -70 69 -112q40 -25 118 -44l119 -29q194 -47 260 -91q105 -69 105 -217q0 -143 -108.5 -247t-330.5 -104q-239 0 -338.5 108.5t-106.5 268.5h173z" />
    <glyph glyph-name="t" unicode="t" horiz-adv-x="569" 
d="M168 1370h182v-299h171v-147h-171v-699q0 -56 38 -75q21 -11 70 -11q13 0 28 1q15 0 35 2v-142q-31 -9 -64.5 -13t-72.5 -4q-126 0 -171 64.5t-45 167.5v709h-145v147h145v299z" />
    <glyph glyph-name="u" unicode="u" 
d="M312 1071v-711q0 -82 26 -134q48 -96 179 -96q188 0 256 168q37 90 37 247v526h180v-1071h-170l2 158q-35 -61 -87 -103q-103 -84 -250 -84q-229 0 -312 153q-45 82 -45 219v728h184z" />
    <glyph glyph-name="v" unicode="v" horiz-adv-x="1024" 
d="M220 1071l286 -872l299 872h197l-404 -1071h-192l-395 1071h209z" />
    <glyph glyph-name="w" unicode="w" horiz-adv-x="1479" 
d="M215 1071l206 -844l209 844h202l210 -839l219 839h180l-311 -1071h-187l-218 829l-211 -829h-187l-309 1071h197z" />
    <glyph glyph-name="x" unicode="x" horiz-adv-x="1024" 
d="M30 1071h233l246 -377l249 377h220l-362 -522l377 -549h-230l-266 402l-258 -402h-228l377 549z" />
    <glyph glyph-name="y" unicode="y" horiz-adv-x="1024" 
d="M801 1071h199l-169 -470l-164 -450q-156 -410 -220 -500t-220 -90q-38 0 -58.5 3t-50.5 11v164q47 -13 68 -16t37 -3q50 0 73.5 16.5t39.5 40.5q5 8 36 82t45 110l-396 1102h204l287 -872z" />
    <glyph glyph-name="z" unicode="z" horiz-adv-x="1024" 
d="M52 142l635 768h-588v161h830v-147l-631 -763h650v-161h-896v142z" />
    <glyph glyph-name="braceleft" unicode="{" horiz-adv-x="684" 
d="M391 -5q0 -154 78 -219.5t171 -76.5v-117q-178 18 -294.5 104.5t-116.5 284.5v206q0 109 -34 172q-62 115 -238 134v114q177 21 238 131q34 61 34 175v163q0 188 81.5 298t329.5 131v-114q-161 -14 -218 -142q-31 -70 -31 -194v-112q0 -150 -37 -230q-67 -145 -260 -163
q192 -17 260 -168q37 -83 37 -226v-151z" />
    <glyph glyph-name="bar" unicode="|" horiz-adv-x="532" 
d="M315 0h-171v1490h171v-1490z" />
    <glyph glyph-name="braceright" unicode="}" horiz-adv-x="684" 
d="M328 702q-37 80 -37 231v112q0 132 -31 200q-56 122 -218 136v114q258 -21 350 -160q60 -89 60 -269v-163q0 -112 34 -174q62 -113 239 -132v-114q-176 -18 -239 -135q-34 -64 -34 -171v-206q0 -202 -116.5 -286t-293.5 -103v117q107 14 178 85.5t71 210.5v151
q0 144 37 226q68 151 259 168q-192 18 -259 162z" />
    <glyph glyph-name="asciitilde" unicode="~" horiz-adv-x="1196" 
d="M390 687q57 -8 110 -29l222 -87q51 -20 84 -30q53 -15 93 -15q73 0 124 57.5t69 141.5h116q-25 -142 -98.5 -259t-222.5 -117q-45 0 -107 18q-36 11 -107 38l-204 78q-38 15 -78.5 23t-66.5 8q-84 0 -132 -65q-28 -38 -57 -129h-117q17 83 37 141.5t70 132.5
q42 50 90.5 74t113.5 24q29 0 61 -5z" />
    <glyph glyph-name="Adieresis" unicode="&#xc4;" horiz-adv-x="1366" 
d="M910 602l-223 649l-237 -649h460zM583 1469h225l533 -1469h-218l-149 440h-581l-159 -440h-204zM758 1818h187v-208h-187v208zM428 1818h187v-208h-187v208z" />
    <glyph glyph-name="Aring" unicode="&#xc5;" horiz-adv-x="1366" 
d="M910 602l-223 649l-237 -649h460zM583 1469h225l533 -1469h-218l-149 440h-581l-159 -440h-204zM684 1664q52 0 89 37t37 89t-37 89t-89 37q-51 0 -88 -37t-37 -89t37 -89t88 -37zM684 1999q86 0 147.5 -61.5t61.5 -147.5t-61.5 -147.5t-147.5 -61.5t-147 61.5t-61 147.5
t61 147.5t147 61.5z" />
    <glyph glyph-name="Ccedilla" unicode="&#xc7;" horiz-adv-x="1479" 
d="M1379 1028h-194q-33 142 -131.5 225t-276.5 83q-217 0 -350.5 -152.5t-133.5 -467.5q0 -258 120.5 -418.5t359.5 -160.5q220 0 335 169q61 89 91 234h194q-26 -232 -172 -389q-175 -189 -451 -189l-66 -90q29 9 75 9q70 0 115.5 -40.5t45.5 -115.5q0 -76 -60 -131
t-184 -55q-53 0 -110 15q-32 8 -86 28l35 81q38 -14 59 -20q41 -11 74 -11q37 0 64 11q52 21 52 76q0 32 -26.5 55.5t-70.5 23.5q-22 0 -39.5 -4t-41.5 -13l-35 41l102 140q-175 0 -350 139q-233 221 -233 649q0 325 172 533q186 226 513 226q279 0 433 -147t171 -334z" />
    <glyph glyph-name="Eacute" unicode="&#xc9;" horiz-adv-x="1366" 
d="M175 1469h1071v-180h-877v-446h811v-170h-811v-498h892v-175h-1086v1469zM985 1875l-267 -289h-138l183 289h222z" />
    <glyph glyph-name="Ntilde" unicode="&#xd1;" horiz-adv-x="1479" 
d="M156 1469h235l742 -1190v1190h189v-1469h-223l-753 1189v-1189h-190v1469zM775 1776q28 -12 51 -19t47 -7q56 0 80 35q13 19 18 57h105q-21 -127 -80.5 -175t-130.5 -48q-22 0 -56 8t-60 18l-53 19q-47 17 -76.5 25.5t-57.5 8.5q-35 0 -57.5 -23t-30.5 -70h-98
q13 79 43 129q57 92 169 92q34 0 75.5 -10t111.5 -40z" />
    <glyph glyph-name="Odieresis" unicode="&#xd6;" horiz-adv-x="1593" 
d="M1366 1259q146 -195 146 -499q0 -329 -167 -547q-196 -256 -559 -256q-339 0 -533 224q-173 216 -173 546q0 298 148 510q190 272 562 272q389 0 576 -250zM1308 757q0 259 -135.5 417t-370.5 158q-228 0 -372 -156.5t-144 -461.5q0 -244 123.5 -411.5t400.5 -167.5
q263 0 380.5 188.5t117.5 433.5zM867 1857h187v-208h-187v208zM537 1857h187v-208h-187v208z" />
    <glyph glyph-name="Udieresis" unicode="&#xdc;" horiz-adv-x="1479" 
d="M372 1469v-908q0 -160 60 -266q89 -160 300 -160q253 0 344 173q49 94 49 253v908h202v-825q0 -271 -73 -417q-134 -266 -506 -266t-505 266q-73 146 -73 417v825h202zM819 1818h187v-208h-187v208zM489 1818h187v-208h-187v208z" />
    <glyph glyph-name="aacute" unicode="&#xe1;" 
d="M462 117q95 0 184 44q150 73 150 239v145q-33 -21 -85 -35t-102 -20l-109 -14q-98 -13 -147 -41q-83 -47 -83 -150q0 -78 57 -123t135 -45zM706 649q62 8 83 52q12 24 12 69q0 92 -65.5 133.5t-187.5 41.5q-141 0 -200 -76q-33 -42 -43 -125h-168q5 198 128.5 275.5
t286.5 77.5q189 0 306.5 -72t117.5 -224v-617q0 -28 11.5 -45t48.5 -17q12 0 27 1.5t32 4.5v-133q-42 -12 -64 -15t-60 -3q-93 0 -135 66q-22 35 -31 99q-55 -72 -158 -125t-227 -53q-149 0 -243.5 90.5t-94.5 226.5q0 149 93 231t244 101zM825 1502l-267 -289h-138l183 289
h222z" />
    <glyph glyph-name="agrave" unicode="&#xe0;" 
d="M462 117q95 0 184 44q150 73 150 239v145q-33 -21 -85 -35t-102 -20l-109 -14q-98 -13 -147 -41q-83 -47 -83 -150q0 -78 57 -123t135 -45zM706 649q62 8 83 52q12 24 12 69q0 92 -65.5 133.5t-187.5 41.5q-141 0 -200 -76q-33 -42 -43 -125h-168q5 198 128.5 275.5
t286.5 77.5q189 0 306.5 -72t117.5 -224v-617q0 -28 11.5 -45t48.5 -17q12 0 27 1.5t32 4.5v-133q-42 -12 -64 -15t-60 -3q-93 0 -135 66q-22 35 -31 99q-55 -72 -158 -125t-227 -53q-149 0 -243.5 90.5t-94.5 226.5q0 149 93 231t244 101zM694 1213h-137l-268 289h223z" />
    <glyph glyph-name="acircumflex" unicode="&#xe2;" 
d="M462 117q95 0 184 44q150 73 150 239v145q-33 -21 -85 -35t-102 -20l-109 -14q-98 -13 -147 -41q-83 -47 -83 -150q0 -78 57 -123t135 -45zM706 649q62 8 83 52q12 24 12 69q0 92 -65.5 133.5t-187.5 41.5q-141 0 -200 -76q-33 -42 -43 -125h-168q5 198 128.5 275.5
t286.5 77.5q189 0 306.5 -72t117.5 -224v-617q0 -28 11.5 -45t48.5 -17q12 0 27 1.5t32 4.5v-133q-42 -12 -64 -15t-60 -3q-93 0 -135 66q-22 35 -31 99q-55 -72 -158 -125t-227 -53q-149 0 -243.5 90.5t-94.5 226.5q0 149 93 231t244 101zM652 1502l204 -289h-164l-135 192
l-135 -192h-163l203 289h190z" />
    <glyph glyph-name="adieresis" unicode="&#xe4;" 
d="M462 117q95 0 184 44q150 73 150 239v145q-33 -21 -85 -35t-102 -20l-109 -14q-98 -13 -147 -41q-83 -47 -83 -150q0 -78 57 -123t135 -45zM706 649q62 8 83 52q12 24 12 69q0 92 -65.5 133.5t-187.5 41.5q-141 0 -200 -76q-33 -42 -43 -125h-168q5 198 128.5 275.5
t286.5 77.5q189 0 306.5 -72t117.5 -224v-617q0 -28 11.5 -45t48.5 -17q12 0 27 1.5t32 4.5v-133q-42 -12 -64 -15t-60 -3q-93 0 -135 66q-22 35 -31 99q-55 -72 -158 -125t-227 -53q-149 0 -243.5 90.5t-94.5 226.5q0 149 93 231t244 101zM629 1445h187v-208h-187v208z
M299 1445h187v-208h-187v208z" />
    <glyph glyph-name="atilde" unicode="&#xe3;" 
d="M462 117q95 0 184 44q150 73 150 239v145q-33 -21 -85 -35t-102 -20l-109 -14q-98 -13 -147 -41q-83 -47 -83 -150q0 -78 57 -123t135 -45zM706 649q62 8 83 52q12 24 12 69q0 92 -65.5 133.5t-187.5 41.5q-141 0 -200 -76q-33 -42 -43 -125h-168q5 198 128.5 275.5
t286.5 77.5q189 0 306.5 -72t117.5 -224v-617q0 -28 11.5 -45t48.5 -17q12 0 27 1.5t32 4.5v-133q-42 -12 -64 -15t-60 -3q-93 0 -135 66q-22 35 -31 99q-55 -72 -158 -125t-227 -53q-149 0 -243.5 90.5t-94.5 226.5q0 149 93 231t244 101zM605 1403q28 -12 51 -19t47 -7
q56 0 80 35q13 19 18 57h105q-21 -127 -80.5 -175t-130.5 -48q-22 0 -56 8t-60 18l-53 19q-47 17 -76.5 25.5t-57.5 8.5q-35 0 -57.5 -23t-30.5 -70h-98q13 79 43 129q57 92 169 92q34 0 75.5 -10t111.5 -40z" />
    <glyph glyph-name="aring" unicode="&#xe5;" 
d="M462 117q95 0 184 44q150 73 150 239v145q-33 -21 -85 -35t-102 -20l-109 -14q-98 -13 -147 -41q-83 -47 -83 -150q0 -78 57 -123t135 -45zM706 649q62 8 83 52q12 24 12 69q0 92 -65.5 133.5t-187.5 41.5q-141 0 -200 -76q-33 -42 -43 -125h-168q5 198 128.5 275.5
t286.5 77.5q189 0 306.5 -72t117.5 -224v-617q0 -28 11.5 -45t48.5 -17q12 0 27 1.5t32 4.5v-133q-42 -12 -64 -15t-60 -3q-93 0 -135 66q-22 35 -31 99q-55 -72 -158 -125t-227 -53q-149 0 -243.5 90.5t-94.5 226.5q0 149 93 231t244 101zM557 1291q52 0 89 37t37 89
t-37 89t-89 37q-51 0 -88 -37t-37 -89t37 -89t88 -37zM557 1626q86 0 147.5 -61.5t61.5 -147.5t-61.5 -147.5t-147.5 -61.5t-147 61.5t-61 147.5t61 147.5t147 61.5z" />
    <glyph glyph-name="ccedilla" unicode="&#xe7;" horiz-adv-x="1024" 
d="M976 711h-175q-16 99 -73 164.5t-183 65.5q-172 0 -246 -168q-48 -109 -48 -269q0 -161 68 -271t214 -110q112 0 177.5 68.5t90.5 187.5h175q-30 -213 -150 -311.5t-279 -98.5l-71 -97q29 9 75 9q70 0 115.5 -40.5t45.5 -115.5q0 -76 -60 -131t-184 -55q-53 0 -110 15
q-32 8 -86 28l35 81q38 -14 59 -20q41 -11 74 -11q37 0 64 11q52 21 52 76q0 32 -26.5 55.5t-70.5 23.5q-22 0 -39.5 -4t-41.5 -13l-35 41l108 147q-142 0 -248 114q-144 163 -144 423q0 282 137 439t349 157q181 0 294.5 -88t136.5 -303z" />
    <glyph glyph-name="eacute" unicode="&#xe9;" 
d="M962 903q54 -81 72 -189q16 -74 16 -236h-785q5 -163 77 -261.5t223 -98.5q141 0 225 93q48 54 68 125h177q-7 -59 -46.5 -131.5t-88.5 -118.5q-82 -80 -203 -108q-65 -16 -147 -16q-200 0 -339 145.5t-139 407.5q0 258 140 419t366 161q114 0 221 -53.5t163 -138.5z
M865 621q-11 117 -51 187q-74 130 -247 130q-124 0 -208 -89.5t-89 -227.5h595zM827 1502l-267 -289h-138l183 289h222z" />
    <glyph glyph-name="egrave" unicode="&#xe8;" 
d="M962 903q54 -81 72 -189q16 -74 16 -236h-785q5 -163 77 -261.5t223 -98.5q141 0 225 93q48 54 68 125h177q-7 -59 -46.5 -131.5t-88.5 -118.5q-82 -80 -203 -108q-65 -16 -147 -16q-200 0 -339 145.5t-139 407.5q0 258 140 419t366 161q114 0 221 -53.5t163 -138.5z
M865 621q-11 117 -51 187q-74 130 -247 130q-124 0 -208 -89.5t-89 -227.5h595zM698 1213h-137l-268 289h223z" />
    <glyph glyph-name="ecircumflex" unicode="&#xea;" 
d="M962 903q54 -81 72 -189q16 -74 16 -236h-785q5 -163 77 -261.5t223 -98.5q141 0 225 93q48 54 68 125h177q-7 -59 -46.5 -131.5t-88.5 -118.5q-82 -80 -203 -108q-65 -16 -147 -16q-200 0 -339 145.5t-139 407.5q0 258 140 419t366 161q114 0 221 -53.5t163 -138.5z
M865 621q-11 117 -51 187q-74 130 -247 130q-124 0 -208 -89.5t-89 -227.5h595zM656 1502l204 -289h-164l-135 192l-135 -192h-163l203 289h190z" />
    <glyph glyph-name="edieresis" unicode="&#xeb;" 
d="M962 903q54 -81 72 -189q16 -74 16 -236h-785q5 -163 77 -261.5t223 -98.5q141 0 225 93q48 54 68 125h177q-7 -59 -46.5 -131.5t-88.5 -118.5q-82 -80 -203 -108q-65 -16 -147 -16q-200 0 -339 145.5t-139 407.5q0 258 140 419t366 161q114 0 221 -53.5t163 -138.5z
M865 621q-11 117 -51 187q-74 130 -247 130q-124 0 -208 -89.5t-89 -227.5h595zM631 1445h187v-208h-187v208zM301 1445h187v-208h-187v208z" />
    <glyph glyph-name="iacute" unicode="&#xed;" horiz-adv-x="569" 
d="M189 1066h183v-1066h-183v1066zM548 1502l-267 -289h-138l183 289h222z" />
    <glyph glyph-name="igrave" unicode="&#xec;" horiz-adv-x="570" 
d="M189 1066h183v-1066h-183v1066zM418 1213h-137l-268 289h223z" />
    <glyph glyph-name="icircumflex" unicode="&#xee;" horiz-adv-x="570" 
d="M189 1066h183v-1066h-183v1066zM376 1502l204 -289h-164l-135 192l-135 -192h-163l203 289h190z" />
    <glyph glyph-name="idieresis" unicode="&#xef;" horiz-adv-x="569" 
d="M189 1066h183v-1066h-183v1066zM352 1445h187v-208h-187v208zM22 1445h187v-208h-187v208z" />
    <glyph glyph-name="ntilde" unicode="&#xf1;" 
d="M132 1071h171v-152q76 94 161 135t189 41q228 0 308 -159q44 -87 44 -249v-687h-183v675q0 98 -29 158q-48 100 -174 100q-64 0 -105 -13q-74 -22 -130 -88q-45 -53 -58.5 -109.5t-13.5 -161.5v-561h-180v1071zM605 1403q28 -12 51 -19t47 -7q56 0 80 35q13 19 18 57h105
q-21 -127 -80.5 -175t-130.5 -48q-22 0 -56 8t-60 18l-53 19q-47 17 -76.5 25.5t-57.5 8.5q-35 0 -57.5 -23t-30.5 -70h-98q13 79 43 129q57 92 169 92q34 0 75.5 -10t111.5 -40z" />
    <glyph glyph-name="oacute" unicode="&#xf3;" 
d="M869 553q0 150 -48 244q-76 148 -262 148q-165 0 -240 -126t-75 -304q0 -171 75 -285t238 -114q179 0 245.5 135.5t66.5 301.5zM1057 558q0 -259 -126 -428t-391 -169q-221 0 -351 149.5t-130 401.5q0 270 137 430t368 160q207 0 350 -138t143 -406zM825 1502l-267 -289
h-138l183 289h222z" />
    <glyph glyph-name="ograve" unicode="&#xf2;" 
d="M869 553q0 150 -48 244q-76 148 -262 148q-165 0 -240 -126t-75 -304q0 -171 75 -285t238 -114q179 0 245.5 135.5t66.5 301.5zM1057 558q0 -259 -126 -428t-391 -169q-221 0 -351 149.5t-130 401.5q0 270 137 430t368 160q207 0 350 -138t143 -406zM694 1213h-137
l-268 289h223z" />
    <glyph glyph-name="ocircumflex" unicode="&#xf4;" 
d="M869 553q0 150 -48 244q-76 148 -262 148q-165 0 -240 -126t-75 -304q0 -171 75 -285t238 -114q179 0 245.5 135.5t66.5 301.5zM1057 558q0 -259 -126 -428t-391 -169q-221 0 -351 149.5t-130 401.5q0 270 137 430t368 160q207 0 350 -138t143 -406zM652 1502l204 -289
h-164l-135 192l-135 -192h-163l203 289h190z" />
    <glyph glyph-name="odieresis" unicode="&#xf6;" 
d="M869 553q0 150 -48 244q-76 148 -262 148q-165 0 -240 -126t-75 -304q0 -171 75 -285t238 -114q179 0 245.5 135.5t66.5 301.5zM1057 558q0 -259 -126 -428t-391 -169q-221 0 -351 149.5t-130 401.5q0 270 137 430t368 160q207 0 350 -138t143 -406zM629 1445h187v-208
h-187v208zM299 1445h187v-208h-187v208z" />
    <glyph glyph-name="otilde" unicode="&#xf5;" 
d="M869 553q0 150 -48 244q-76 148 -262 148q-165 0 -240 -126t-75 -304q0 -171 75 -285t238 -114q179 0 245.5 135.5t66.5 301.5zM1057 558q0 -259 -126 -428t-391 -169q-221 0 -351 149.5t-130 401.5q0 270 137 430t368 160q207 0 350 -138t143 -406zM607 1403
q28 -12 51 -19t47 -7q56 0 80 35q13 19 18 57h105q-21 -127 -80.5 -175t-130.5 -48q-22 0 -56 8t-60 18l-53 19q-47 17 -76.5 25.5t-57.5 8.5q-35 0 -57.5 -23t-30.5 -70h-98q13 79 43 129q57 92 169 92q34 0 75.5 -10t111.5 -40z" />
    <glyph glyph-name="uacute" unicode="&#xfa;" 
d="M312 1071v-711q0 -82 26 -134q48 -96 179 -96q188 0 256 168q37 90 37 247v526h180v-1071h-170l2 158q-35 -61 -87 -103q-103 -84 -250 -84q-229 0 -312 153q-45 82 -45 219v728h184zM827 1502l-267 -289h-138l183 289h222z" />
    <glyph glyph-name="ugrave" unicode="&#xf9;" 
d="M312 1071v-711q0 -82 26 -134q48 -96 179 -96q188 0 256 168q37 90 37 247v526h180v-1071h-170l2 158q-35 -61 -87 -103q-103 -84 -250 -84q-229 0 -312 153q-45 82 -45 219v728h184zM696 1213h-137l-268 289h223z" />
    <glyph glyph-name="ucircumflex" unicode="&#xfb;" 
d="M312 1071v-711q0 -82 26 -134q48 -96 179 -96q188 0 256 168q37 90 37 247v526h180v-1071h-170l2 158q-35 -61 -87 -103q-103 -84 -250 -84q-229 0 -312 153q-45 82 -45 219v728h184zM654 1502l204 -289h-164l-135 192l-135 -192h-163l203 289h190z" />
    <glyph glyph-name="udieresis" unicode="&#xfc;" 
d="M312 1071v-711q0 -82 26 -134q48 -96 179 -96q188 0 256 168q37 90 37 247v526h180v-1071h-170l2 158q-35 -61 -87 -103q-103 -84 -250 -84q-229 0 -312 153q-45 82 -45 219v728h184zM631 1445h187v-208h-187v208zM301 1445h187v-208h-187v208z" />
    <glyph glyph-name="dagger" unicode="&#x2020;" 
d="M80 881v157h386v431h192v-431h387v-157h-387v-1209h-192v1209h-386z" />
    <glyph glyph-name="degree" unicode="&#xb0;" horiz-adv-x="819" 
d="M715 1130q0 -130 -90.5 -216.5t-210.5 -86.5q-133 0 -218 90t-85 210q0 128 89.5 216t213.5 88q127 0 214 -87.5t87 -213.5zM414 936q77 0 134.5 56.5t57.5 137.5q0 78 -56.5 135t-135.5 57t-136.5 -56.5t-57.5 -137.5q0 -78 57 -135t137 -57z" />
    <glyph glyph-name="cent" unicode="&#xa2;" 
d="M339 269q32 -66 94 -111l221 775q-12 4 -28 7t-41 3q-126 0 -212.5 -115t-86.5 -305q0 -156 53 -254zM696 1092l53 183h83l-55 -202q119 -49 186 -141.5t79 -225.5h-168q-10 59 -40 117q-35 62 -102 87l-223 -785q19 -6 35 -9t46 -3q136 0 211 94q44 55 76 167h173
q-31 -149 -104 -247q-129 -170 -372 -170q-37 0 -60 3.5t-50 10.5l-62 -208h-85l69 232q-154 71 -218 211.5t-64 314.5q0 256 132.5 418.5t369.5 162.5q21 0 44 -2.5t46 -7.5z" />
    <glyph glyph-name="sterling" unicode="&#xa3;" 
d="M66 118q113 79 182 174.5t69 207.5q0 32 -13 75q-8 27 -27 74h-221v104h157v0q-2 0 -33 63q-34 67 -45 98q-10 29 -17 67.5t-7 82.5q0 156 127 279.5t364 123.5q223 0 337.5 -122t117.5 -345h-185q0 151 -70.5 229.5t-214.5 78.5q-140 0 -212 -73.5t-72 -178.5
q0 -52 22.5 -107t95.5 -196h328v-104h-283q10 -46 14.5 -72t4.5 -54q0 -100 -60 -197.5t-188 -193.5q69 35 136 55.5t131 20.5q72 0 190.5 -35.5t155.5 -35.5q47 0 86 18q24 11 73 46l83 -135q-56 -45 -100 -67q-73 -35 -155 -35q-60 0 -201.5 46t-223.5 46q-76 0 -144 -26
q-40 -16 -103 -54z" />
    <glyph glyph-name="section" unicode="&#xa7;" 
d="M556 1470q240 0 331 -159q48 -83 51 -216h-175q-7 95 -33 140q-47 82 -165 82q-94 0 -143.5 -44.5t-49.5 -118.5q0 -43 18.5 -77.5t55.5 -60.5q74 -51 263 -157q336 -188 336 -398q0 -119 -72 -208q-41 -51 -139 -121q53 -49 82 -107t29 -125q0 -135 -105 -233.5
t-283 -98.5q-235 0 -329 152q-52 82 -63 232h178q8 -98 35 -144q48 -83 167 -83q78 0 125 21q88 39 88 147q0 46 -27 86q-16 22 -45 46q-16 13 -104 73l-99 67l-178 119q-106 71 -151 123q-79 89 -79 200q0 96 59 173.5t155 136.5q-44 40 -68 86q-27 58 -27 123
q0 145 99.5 244.5t262.5 99.5zM732 215q59 34 87 68q50 59 50 146q0 78 -53 133q-33 34 -134 96l-291 178q-59 -32 -87 -62q-53 -56 -53 -136q0 -43 13 -76q25 -61 93 -105z" />
    <glyph glyph-name="bullet" unicode="&#x2022;" horiz-adv-x="717" 
d="M731 734q0 -96 -62.5 -159t-158.5 -63t-158.5 63t-62.5 159t62.5 158t158.5 62t158.5 -62t62.5 -158z" />
    <glyph glyph-name="paragraph" unicode="&#xb6;" horiz-adv-x="1100" 
d="M940 -363h-147v1716h-231v-1716h-147v889q-213 3 -319.5 148.5t-106.5 320.5q0 148 72 264q130 210 428 210h576v-116h-125v-1716z" />
    <glyph glyph-name="germandbls" unicode="&#xdf;" horiz-adv-x="1251" 
d="M199 1024q0 286 153 397q102 70 254 70q207 0 318 -100.5t111 -265.5q0 -116 -46 -192t-120 -113q91 -23 153 -99q84 -96 84 -270q0 -198 -112.5 -339t-318.5 -141q-48 0 -71.5 2t-58.5 8v156q24 -3 44 -5t45 -2q108 0 196.5 68t88.5 242q0 169 -114 241q-71 44 -166 44
q-17 0 -39.5 -2t-45.5 -5v161q18 -3 27.5 -4t20.5 -1q145 0 200.5 73.5t55.5 154.5q0 102 -60.5 167t-180.5 65q-155 0 -208 -112q-30 -63 -30 -198v-1024h-180v1024z" />
    <glyph glyph-name="registered" unicode="&#xae;" horiz-adv-x="1509" 
d="M307 1184q-184 -185 -184 -447q0 -264 183 -450q184 -186 447 -186t447 186t184 450q0 262 -184 447q-185 186 -447 186q-261 0 -446 -186zM1273 216q-215 -216 -520 -216t-519 216q-213 215 -213 521q0 303 214.5 517.5t517.5 214.5q305 0 520 -214t215 -518
q0 -305 -215 -521zM720 1045h-121v-292h128q90 0 135 18q83 33 83 126q0 88 -53.5 118t-171.5 30zM739 1142q150 0 220 -29q125 -52 125 -204q0 -108 -79 -159q-42 -27 -117 -39q95 -15 139 -79t44 -125v-59q0 -28 2 -60t7 -42l5 -10h-133l-2 8t-2 9l-3 26v64q0 140 -76 185
q-45 26 -158 26h-112v-318h-142v806h282z" />
    <glyph glyph-name="copyright" unicode="&#xa9;" horiz-adv-x="1509" 
d="M772 310q-165 0 -282 118t-117 314q0 183 105.5 306t275.5 123q107 0 193 -43q149 -77 162 -256h-121q-9 75 -63 130t-157 55q-145 0 -210 -130q-42 -83 -42 -179q0 -137 67.5 -230.5t195.5 -93.5q82 0 137 43.5t77 126.5h121q-23 -135 -117 -209.5t-225 -74.5zM308 1184
q-183 -185 -183 -447q0 -264 182 -450q184 -186 446 -186t446 186q182 186 182 450q0 262 -183 447q-183 186 -445 186q-261 0 -445 -186zM1273 216q-215 -216 -520 -216t-520 216t-215 521q0 304 215 518t520 214t520 -214t215 -518q0 -305 -215 -521z" />
    <glyph glyph-name="trademark" unicode="&#x2122;" horiz-adv-x="2048" 
d="M1185 1469l185 -519l187 519h206v-725h-133v585l-201 -585h-116l-202 585v-585h-133v725h207zM237 1348v121h618v-121h-237v-604h-144v604h-237z" />
    <glyph glyph-name="acute" unicode="&#xb4;" horiz-adv-x="682" 
d="M485 1502l-267 -289h-138l183 289h222z" />
    <glyph glyph-name="dieresis" unicode="&#xa8;" horiz-adv-x="682" 
d="M289 1445h187v-208h-187v208zM-41 1445h187v-208h-187v208z" />
    <glyph glyph-name="notequal" unicode="&#x2260;" horiz-adv-x="1124" 
d="M1135 822v-168h-375l-116 -261h491v-171h-567l-109 -241h-175l109 241h-301v171h377l116 261h-493v168h569l107 242h175l-107 -242h299z" />
    <glyph glyph-name="AE" unicode="&#xc6;" horiz-adv-x="2048" 
d="M737 1298l-273 -694h472v694h-199zM613 1469h1316v-175h-796v-451h730v-166h-730v-502h815v-175h-1012v436h-541l-163 -436h-216z" />
    <glyph glyph-name="Oslash" unicode="&#xd8;" horiz-adv-x="1593" 
d="M812 135q268 0 399 224q97 166 97 398q0 130 -38 239q-21 59 -62 129l-770 -846q67 -70 149 -107t225 -37zM132 -36l-66 62l175 180q-82 107 -121.5 240.5t-39.5 280.5q0 304 156 520q190 263 545 263q177 0 300.5 -44.5t205.5 -121.5l154 165l64 -61l-157 -173
q57 -70 104 -177q60 -147 60 -338q0 -364 -205 -586q-200 -217 -513 -217q-187 0 -324 63q-87 40 -169 117zM1030 1281q-103 51 -235 51q-225 0 -367 -157.5t-142 -460.5q0 -95 20 -191t73 -175l775 846q-67 59 -124 87z" />
    <glyph glyph-name="infinity" unicode="&#x221e;" horiz-adv-x="1460" 
d="M1051 964q-92 0 -165 -98t-73 -129q0 -33 74.5 -136.5t164.5 -103.5t143 68t53 172q0 97 -52.5 162t-144.5 65zM388 493q92 0 172 109.5t80 143.5q0 23 -86.5 122t-174.5 99q-76 0 -128 -66t-52 -176q0 -113 58 -172.5t131 -59.5zM711 561q-51 -86 -102 -132
q-96 -87 -222 -87q-153 0 -249 109t-96 283q0 161 92 276t249 115q101 0 181.5 -61t148.5 -195q66 120 127 174q92 84 223 84q159 0 248 -118.5t89 -271.5q0 -157 -87.5 -276t-243.5 -119q-121 0 -206 77q-76 66 -131 178z" />
    <glyph glyph-name="plusminus" unicode="&#xb1;" horiz-adv-x="1124" 
d="M1135 161v-161h-1043v161h1043zM92 557v158h436v330h171v-330h436v-158h-436v-318h-171v318h-436z" />
    <glyph glyph-name="lessequal" unicode="&#x2264;" horiz-adv-x="1124" 
d="M1133 0h-1043v161h1043v-161zM1133 1064v-180l-830 -256l830 -259v-180l-1043 353v169z" />
    <glyph glyph-name="greaterequal" unicode="&#x2265;" horiz-adv-x="1124" 
d="M92 1064l1043 -353v-169l-1043 -353v180l830 259l-830 256v180zM1135 161v-161h-1043v161h1043z" />
    <glyph glyph-name="yen" unicode="&#xa5;" 
d="M192 1405l365 -675l367 675h223l-265 -445h175v-136h-253l-129 -218h349v-135h-373v-471h-189v471h-363v135h339l-128 218h-258v136h180l-263 445h223z" />
    <glyph glyph-name="mu" unicode="&#xb5;" horiz-adv-x="1180" 
d="M433 1069l-163 -757q-4 -17 -5.5 -29.5t-1.5 -27.5q0 -48 19 -76q35 -51 132 -51q145 0 245.5 106.5t131.5 248.5l128 586h183l-230 -1069h-173l42 180q-22 -44 -94 -105q-123 -103 -273 -103q-47 0 -96 17t-72 39l-97 -450h-185l324 1491h185z" />
    <glyph glyph-name="partialdiff" unicode="&#x2202;" horiz-adv-x="1012" 
d="M516 118q106 0 183.5 108.5t77.5 241.5q0 122 -64.5 188t-150.5 66q-115 0 -187.5 -106t-72.5 -230q0 -119 63.5 -193.5t150.5 -74.5zM836 694q1 41 3 79q1 38 1 58q0 135 -26 261q-53 249 -185 249q-36 0 -62 -14t-53 -38l-130 159q57 31 92 43q58 20 124 20
q212 0 326 -222q101 -196 101 -507t-130 -546q-153 -274 -414 -274q-165 0 -271 125.5t-106 309.5q0 178 120 337.5t313 159.5q110 0 180 -51t117 -149z" />
    <glyph glyph-name="summation" unicode="&#x2211;" horiz-adv-x="1460" 
d="M40 -132l641 732l-618 696v173h1091v-173h-850l618 -696l-638 -727h901v-173h-1145v168z" />
    <glyph glyph-name="product" unicode="&#x220f;" horiz-adv-x="1686" 
d="M1452 1469v-173h-177v-1596h-201v1596h-668v-1596h-201v1596h-177v173h1424z" />
    <glyph glyph-name="pi" unicode="&#x3c0;" horiz-adv-x="1124" 
d="M1194 910h-177v-652q0 -57 16 -82.5t75 -25.5q13 0 18 0.5t38 5.5v-152l-43 -4q-35 -3 -47.5 -4t-28.5 -1q-90 0 -134 26q-79 48 -79 185v704h-428v-910h-185v910h-177v156h1152v-156z" />
    <glyph glyph-name="integral" unicode="&#x222b;" horiz-adv-x="561" 
d="M537 1353q77 192 276 192q43 0 82 -9q24 -5 65 -19l-15 -162q-41 17 -66.5 25.5t-49.5 8.5q-90 0 -123.5 -91t-44.5 -317l-33 -683q-18 -364 -94.5 -541t-280.5 -177q-40 0 -70 7t-58 17l14 166q26 -13 50 -21t53 -8q85 0 127.5 76.5t54.5 281.5l52 882q16 262 61 372z
" />
    <glyph glyph-name="ordfeminine" unicode="&#xaa;" horiz-adv-x="758" 
d="M495 1168q-46 -21 -159 -36q-126 -26 -126 -109q0 -41 25.5 -64.5t76.5 -23.5q82 0 132.5 37t50.5 120v76zM438 1242q25 4 42 14.5t17 43.5q0 53 -31 78t-104 25q-72 0 -103.5 -28.5t-36.5 -76.5h-128q8 101 71 156t219 55q155 0 216 -72q40 -48 40 -134v-315
q0 -21 7.5 -33t36.5 -12q6 0 34 2v-106q-22 -6 -42 -9t-42 -3q-52 0 -77.5 28.5t-30.5 73.5q-50 -59 -119 -80.5t-127 -21.5q-111 0 -166 59t-55 135q0 106 89 158q49 30 131 41z" />
    <glyph glyph-name="ordmasculine" unicode="&#xba;" horiz-adv-x="748" 
d="M701 1171q0 -149 -83.5 -246.5t-245.5 -97.5q-185 0 -268 134q-55 88 -55 202q0 113 56 205q87 141 277 141q143 0 231 -85t88 -253zM194 1158q0 -89 41.5 -152t131.5 -63q112 0 159 95q28 57 28 134q0 110 -50.5 165.5t-122.5 55.5q-88 0 -137.5 -60.5t-49.5 -174.5z
" />
    <glyph glyph-name="Omega" unicode="&#x2126;" horiz-adv-x="1573" 
d="M258 1267q184 243 534 243q368 0 554 -226q154 -187 154 -481q0 -243 -100 -399t-239 -227h353v-177h-583v177q154 89 229 185q134 171 134 441q0 257 -138 393t-362 136q-233 0 -356 -155t-123 -355q0 -239 117 -414t250 -231v-177h-588v177h356q-137 97 -210 198
q-129 179 -129 423q0 273 147 469z" />
    <glyph glyph-name="ae" unicode="&#xe6;" horiz-adv-x="1821" 
d="M1543 621q-3 157 -86.5 237.5t-203.5 80.5t-207 -80.5t-96 -237.5h593zM782 545q-25 -17 -49 -26.5t-85 -19.5l-153 -23q-111 -18 -159 -45q-79 -46 -79 -144q0 -84 63.5 -129t149.5 -45q49 0 114 25t120 77q49 46 64 94q9 30 14 101v135zM685 649q51 7 76 36t25 82
q0 86 -56 131t-179 45q-100 0 -160 -32q-100 -59 -100 -170h-173q10 226 177 309q96 47 264 47q133 0 228 -49q80 -43 122 -112q59 77 147.5 119t199.5 42q117 0 216 -41.5t165 -138.5q59 -80 78.5 -184.5t19.5 -254.5h-787q5 -166 82 -263t216 -97q130 0 198 57t94 161h182
q-9 -80 -67 -164.5t-122 -126.5q-70 -46 -142.5 -63.5t-149.5 -17.5q-147 0 -260 76q-104 77 -133 152q-82 -121 -186.5 -174.5t-226.5 -53.5q-172 0 -266 86t-94 222q0 178 121 266q77 56 206 73z" />
    <glyph glyph-name="oslash" unicode="&#xf8;" horiz-adv-x="1251" 
d="M618 945q-145 0 -232.5 -121.5t-87.5 -312.5q0 -72 15 -138q9 -37 30 -94l503 564q-28 43 -90 72.5t-138 29.5zM610 116q189 0 268 178q48 107 48 246q0 90 -15 155q-8 35 -27 82l-496 -564q49 -57 106 -77t116 -20zM92 4l128 135q-50 74 -77 166t-27 218
q0 227 126.5 403.5t368.5 176.5q126 0 221 -46q56 -27 128 -88l125 142l52 -50l-128 -144q63 -92 90 -211q17 -77 17 -154q0 -258 -139 -425.5t-370 -167.5q-110 0 -196 32.5t-139 88.5l-121 -128z" />
    <glyph glyph-name="questiondown" unicode="&#xbf;" horiz-adv-x="1251" 
d="M545 1076h199v-209h-199v209zM426 374q91 91 113 152t22 175h178q0 -152 -30 -224t-167 -217l-78 -83q-52 -54 -70 -101t-18 -90q0 -102 64.5 -172t201.5 -70q151 0 215 111q36 64 46 211h173v-14q0 -236 -127 -349q-132 -116 -317 -116t-315.5 103t-130.5 285
q0 101 47 177t146 175z" />
    <glyph glyph-name="exclamdown" unicode="&#xa1;" horiz-adv-x="682" 
d="M232 1071h204v-209h-204v209zM232 85l52 635h101l51 -635v-484h-204v484z" />
    <glyph glyph-name="logicalnot" unicode="&#xac;" horiz-adv-x="1196" 
d="M1135 822v-600h-168v432h-875v168h1043z" />
    <glyph glyph-name="radical" unicode="&#x221a;" horiz-adv-x="1124" 
d="M538 -38l-311 910l-190 -116l-54 102l351 199l277 -832l571 1680h147l-661 -1943h-130z" />
    <glyph glyph-name="florin" unicode="&#x192;" 
d="M71 -230q24 -12 48.5 -20.5t50.5 -8.5q102 0 151 100q31 63 67 258l131 702h-226v142h254q50 236 63.5 284t48.5 117q53 85 125 124t158 39q44 0 79 -7t67 -21l-31 -162q-44 19 -67 26.5t-46 7.5q-83 0 -125.5 -79.5t-86.5 -328.5h235v-142h-261l-90 -503
q-67 -375 -131 -505q-103 -213 -320 -213q-45 0 -73 7t-52 17z" />
    <glyph glyph-name="approxequal" unicode="&#x2248;" horiz-adv-x="1124" 
d="M92 768q79 70 136 95t134 25q97 0 261.5 -74.5t235.5 -74.5q97 0 189 65q55 38 87 80v-192q-40 -37 -94 -66q-90 -48 -179 -48q-25 0 -65.5 6t-73.5 18q-19 6 -157 66q-68 30 -103 42q-55 17 -104 17q-87 0 -157 -45q-43 -28 -110 -99v185zM92 346q79 70 136 95t134 25
q97 0 261.5 -74.5t235.5 -74.5q90 0 160.5 45.5t115.5 99.5v-192q-67 -55 -133 -84.5t-140 -29.5q-31 0 -69.5 7.5t-69.5 16.5q-23 8 -157 66q-68 30 -103 42q-55 17 -104 17q-88 0 -160 -47q-44 -28 -107 -97v185z" />
    <glyph glyph-name="Delta" unicode="&#x2206;" horiz-adv-x="1253" 
d="M1367 0h-1254l515 1469h215zM1118 163l-386 1114l-370 -1114h756z" />
    <glyph glyph-name="guillemotleft" unicode="&#xab;" 
d="M613 654l323 251v-180l-216 -166l216 -166v-180l-323 251v190zM194 654l322 251v-180l-215 -166l215 -166v-180l-322 251v190z" />
    <glyph glyph-name="guillemotright" unicode="&#xbb;" 
d="M613 393l211 166l-211 166v180l323 -251v-190l-323 -251v180zM194 393l211 166l-211 166v180l322 -251v-190l-322 -251v180z" />
    <glyph glyph-name="ellipsis" unicode="&#x2026;" horiz-adv-x="2048" 
d="M919 0v220h209v-220h-209zM237 220h208v-220h-208v220zM1602 0v220h208v-220h-208z" />
    <glyph glyph-name="nonbreakingspace" unicode="&#xa0;" horiz-adv-x="569" 
 />
    <glyph glyph-name="Agrave" unicode="&#xc0;" horiz-adv-x="1366" 
d="M910 602l-223 649l-237 -649h460zM583 1469h225l533 -1469h-218l-149 440h-581l-159 -440h-204zM823 1586h-137l-268 289h223z" />
    <glyph glyph-name="Atilde" unicode="&#xc3;" horiz-adv-x="1366" 
d="M910 602l-223 649l-237 -649h460zM583 1469h225l533 -1469h-218l-149 440h-581l-159 -440h-204zM734 1776q28 -12 51 -19t47 -7q56 0 80 35q13 19 18 57h105q-21 -127 -80.5 -175t-130.5 -48q-22 0 -56 8t-60 18l-53 19q-47 17 -76.5 25.5t-57.5 8.5q-35 0 -57.5 -23
t-30.5 -70h-98q13 79 43 129q57 92 169 92q34 0 75.5 -10t111.5 -40z" />
    <glyph glyph-name="Otilde" unicode="&#xd5;" horiz-adv-x="1593" 
d="M1366 1259q146 -195 146 -499q0 -329 -167 -547q-196 -256 -559 -256q-339 0 -533 224q-173 216 -173 546q0 298 148 510q190 272 562 272q389 0 576 -250zM1308 757q0 259 -135.5 417t-370.5 158q-228 0 -372 -156.5t-144 -461.5q0 -244 123.5 -411.5t400.5 -167.5
q263 0 380.5 188.5t117.5 433.5zM845 1815q28 -12 51 -19t47 -7q56 0 80 35q13 19 18 57h105q-21 -127 -80.5 -175t-130.5 -48q-22 0 -56 8t-60 18l-53 19q-47 17 -76.5 25.5t-57.5 8.5q-35 0 -57.5 -23t-30.5 -70h-98q13 79 43 129q57 92 169 92q34 0 75.5 -10t111.5 -40z
" />
    <glyph glyph-name="OE" unicode="&#x152;" horiz-adv-x="2048" 
d="M1059 490v517q0 154 -101 243t-250 89q-255 0 -364 -242q-70 -157 -70 -384q0 -255 106 -420t336 -165q126 0 234.5 83t108.5 279zM1071 1320v149h901v-175h-711v-451h677v-170h-677v-498h715v-175h-907v154q-45 -79 -146 -133.5t-266 -54.5q-222 0 -404 189
q-180 208 -180 565q0 295 125 505q164 277 502 277q128 0 222.5 -48.5t148.5 -133.5z" />
    <glyph glyph-name="oe" unicode="&#x153;" horiz-adv-x="1933" 
d="M578 1099q169 0 280 -81q62 -45 116 -130q64 99 167 154t232 55q119 0 215.5 -48.5t162.5 -143.5q61 -87 81 -203q12 -71 14 -224h-794q5 -132 46 -213q76 -154 269 -154q135 0 214 91q44 49 73 134h180q-42 -177 -169.5 -278t-301.5 -101q-118 0 -221.5 47t-186.5 171
q-70 -122 -174 -169t-217 -47q-208 0 -350.5 142.5t-142.5 421.5q0 247 133 411.5t374 164.5zM1659 616q-8 116 -49 188q-75 134 -253 134q-89 0 -165 -53q-118 -83 -138 -269h605zM884 549q0 197 -88 295.5t-224 98.5q-134 0 -225 -106t-91 -325q0 -184 89.5 -291.5
t230.5 -107.5q113 0 210.5 95t97.5 341z" />
    <glyph glyph-name="endash" unicode="&#x2013;" 
d="M-5 640h1147v-147h-1147v147z" />
    <glyph glyph-name="emdash" unicode="&#x2014;" horiz-adv-x="2048" 
d="M241 640h1565v-147h-1565v147z" />
    <glyph glyph-name="quotedblleft" unicode="&#x201c;" horiz-adv-x="682" 
d="M291 1389q-69 -13 -97 -100q-14 -43 -14 -85q0 -5 0.5 -8.5t1.5 -15.5h109v-218h-213v201q0 148 59 228t154 92v-94zM628 1389q-55 -9 -83.5 -62t-28.5 -122q0 -6 0.5 -12t2.5 -13h109v-218h-214v201q0 119 50 212.5t164 107.5v-94z" />
    <glyph glyph-name="quotedblright" unicode="&#x201d;" horiz-adv-x="682" 
d="M414 1042q75 14 99 110q11 44 11 80q0 10 -1 19h-109v218h214v-201q0 -119 -49 -212.5t-165 -107.5v94zM78 1042q75 14 100 110q10 42 10 76q0 12 -1 23h-109v218h213v-201q0 -119 -49 -211.5t-164 -108.5v94z" />
    <glyph glyph-name="quoteleft" unicode="&#x2018;" horiz-adv-x="455" 
d="M346 1389q-55 -9 -83.5 -62t-28.5 -123q0 -6 0.5 -11.5t2.5 -12.5h109v-218h-214v201q0 119 50 212.5t164 107.5v-94z" />
    <glyph glyph-name="quoteright" unicode="&#x2019;" horiz-adv-x="455" 
d="M170 1042q55 9 83.5 62t28.5 122q0 7 -0.5 12.5t-2.5 12.5h-109v218h214v-201q0 -128 -53 -217.5t-161 -102.5v94z" />
    <glyph glyph-name="divide" unicode="&#xf7;" horiz-adv-x="1124" 
d="M509 21v220h211v-220h-211zM1135 606v-168h-1043v168h1043zM720 1024v-221h-211v221h211z" />
    <glyph glyph-name="lozenge" unicode="&#x25ca;" horiz-adv-x="1012" 
d="M509 1509l446 -765l-446 -787l-443 787zM509 1244l-291 -500l291 -522l292 522z" />
    <glyph glyph-name="ydieresis" unicode="&#xff;" horiz-adv-x="1024" 
d="M801 1071h199l-169 -470l-164 -450q-156 -410 -220 -500t-220 -90q-38 0 -58.5 3t-50.5 11v164q47 -13 68 -16t37 -3q50 0 73.5 16.5t39.5 40.5q5 8 36 82t45 110l-396 1102h204l287 -872zM582 1445h187v-208h-187v208zM252 1445h187v-208h-187v208z" />
    <glyph glyph-name="Ydieresis" unicode="&#x178;" horiz-adv-x="1366" 
d="M42 1469h232l422 -706l422 706h233l-555 -877v-592h-199v592zM770 1818h187v-208h-187v208zM440 1818h187v-208h-187v208z" />
    <glyph glyph-name="fraction" unicode="&#x2044;" horiz-adv-x="342" 
d="M540 1431h135l-882 -1469h-135z" />
    <glyph glyph-name="currency" unicode="&#xa4;" 
d="M561 412q119 0 205.5 83.5t86.5 208.5t-86.5 209t-205.5 84q-122 0 -208 -85t-86 -208q0 -120 85.5 -206t208.5 -86zM75 1095l95 94l138 -137q56 42 115.5 63.5t128.5 21.5q83 0 145 -22.5t116 -64.5l137 139l95 -94l-140 -140q46 -58 68.5 -121t22.5 -137
q0 -58 -19.5 -121.5t-71.5 -123.5l140 -137l-95 -95l-137 135q-57 -43 -119 -64.5t-130 -21.5q-62 0 -123.5 18t-132.5 70l-138 -139l-95 97l140 137q-42 54 -63.5 116t-21.5 130q0 85 24 147t61 115z" />
    <glyph glyph-name="guilsinglleft" unicode="&#x2039;" horiz-adv-x="682" 
d="M180 654l322 251v-180l-216 -166l216 -166v-180l-322 251v190z" />
    <glyph glyph-name="guilsinglright" unicode="&#x203a;" horiz-adv-x="682" 
d="M170 393l216 166l-216 166v180l323 -251v-190l-323 -251v180z" />
    <glyph glyph-name="fi" unicode="&#xf001;" horiz-adv-x="1024" 
d="M216 1398q63 92 243 92q17 0 35 -1t41 -3v-164q-28 2 -40 3h-24q-82 0 -98 -42.5t-16 -216.5h178v-142h-180v-924h-178v924h-149v142h149v168q4 112 39 164zM708 1265v204h180v-204h-180zM708 1066h180v-1066h-180v1066z" />
    <glyph glyph-name="fl" unicode="&#xf002;" horiz-adv-x="1024" 
d="M884 0h-180v1469h180v-1469zM355 0h-178v924h-149v142h149v190q0 119 73.5 176.5t196.5 57.5q24 0 43.5 -1.5t44.5 -5.5v-161q-28 2 -40 3h-24q-76 0 -101 -44q-15 -25 -15 -82v-133h180v-142h-180v-924z" />
    <glyph glyph-name="daggerdbl" unicode="&#x2021;" 
d="M80 87v157h386v654h-386v156h386v415h192v-415h387v-156h-387v-654h387v-157h-387v-415h-192v415h-386z" />
    <glyph glyph-name="periodcentered" unicode="&#x2219;" horiz-adv-x="569" 
d="M407 701q0 -53 -37.5 -90.5t-90.5 -37.5t-90.5 37.5t-37.5 90.5t37 90.5t91 37.5t91 -37.5t37 -90.5z" />
    <glyph glyph-name="quotesinglbase" unicode="&#x201a;" horiz-adv-x="455" 
d="M170 -209q69 12 97 97q15 45 15 87q0 7 -0.5 12.5t-2.5 12.5h-109v218h214v-202q0 -119 -48 -209t-166 -111v95z" />
    <glyph glyph-name="quotedblbase" unicode="&#x201e;" horiz-adv-x="682" 
d="M414 -209q69 12 97 97q15 45 15 87q0 7 -0.5 12.5t-2.5 12.5h-109v218h214v-202q0 -116 -46.5 -207t-167.5 -113v95zM78 -209q61 12 89 73q22 47 22 103q0 16 -2 33h-109v218h213v-202q0 -115 -44.5 -206t-168.5 -114v95z" />
    <glyph glyph-name="perthousand" unicode="&#x2030;" horiz-adv-x="2048" 
d="M1716 113q80 0 136 56.5t56 135.5q0 80 -56 136t-136 56q-79 0 -135.5 -56t-56.5 -136q0 -79 56.5 -135.5t135.5 -56.5zM1716 625q132 0 226 -93.5t94 -226.5q0 -132 -94 -226t-226 -94q-133 0 -226.5 94t-93.5 226q0 133 93.5 226.5t226.5 93.5zM960 113
q79 0 135.5 56.5t56.5 135.5t-56.5 135.5t-135.5 56.5q-80 0 -136 -56t-56 -136t56 -136t136 -56zM1280 305q0 -132 -94 -226t-226 -94q-133 0 -226.5 94t-93.5 226q0 133 93.5 226.5t226.5 93.5q132 0 226 -93.5t94 -226.5zM1014 1483h111l-843 -1536h-112zM334 955
q80 0 136 56.5t56 135.5q0 80 -56 136t-136 56q-79 0 -135.5 -56t-56.5 -136q0 -79 56.5 -135.5t135.5 -56.5zM334 1467q132 0 226 -94t94 -226q0 -133 -94 -226.5t-226 -93.5q-133 0 -226.5 93.5t-93.5 226.5q0 132 93.5 226t226.5 94z" />
    <glyph glyph-name="Acircumflex" unicode="&#xc2;" horiz-adv-x="1366" 
d="M910 602l-223 649l-237 -649h460zM583 1469h225l533 -1469h-218l-149 440h-581l-159 -440h-204zM781 1875l204 -289h-164l-135 192l-135 -192h-163l203 289h190z" />
    <glyph glyph-name="Ecircumflex" unicode="&#xca;" horiz-adv-x="1366" 
d="M175 1469h1071v-180h-877v-446h811v-170h-811v-498h892v-175h-1086v1469zM814 1875l204 -289h-164l-135 192l-135 -192h-163l203 289h190z" />
    <glyph glyph-name="Aacute" unicode="&#xc1;" horiz-adv-x="1366" 
d="M910 602l-223 649l-237 -649h460zM583 1469h225l533 -1469h-218l-149 440h-581l-159 -440h-204zM954 1875l-267 -289h-138l183 289h222z" />
    <glyph glyph-name="Edieresis" unicode="&#xcb;" horiz-adv-x="1366" 
d="M175 1469h1071v-180h-877v-446h811v-170h-811v-498h892v-175h-1086v1469zM789 1818h187v-208h-187v208zM459 1818h187v-208h-187v208z" />
    <glyph glyph-name="Egrave" unicode="&#xc8;" horiz-adv-x="1366" 
d="M175 1469h1071v-180h-877v-446h811v-170h-811v-498h892v-175h-1086v1469zM856 1586h-137l-268 289h223z" />
    <glyph glyph-name="Iacute" unicode="&#xcd;" horiz-adv-x="569" 
d="M201 1469h201v-1469h-201v1469zM569 1875l-267 -289h-138l183 289h222z" />
    <glyph glyph-name="Icircumflex" unicode="&#xce;" horiz-adv-x="569" 
d="M201 1469h201v-1469h-201v1469zM396 1875l204 -289h-164l-135 192l-135 -192h-163l203 289h190z" />
    <glyph glyph-name="Idieresis" unicode="&#xcf;" horiz-adv-x="569" 
d="M201 1469h201v-1469h-201v1469zM373 1818h187v-208h-187v208zM43 1818h187v-208h-187v208z" />
    <glyph glyph-name="Igrave" unicode="&#xcc;" horiz-adv-x="569" 
d="M201 1469h201v-1469h-201v1469zM438 1586h-137l-268 289h223z" />
    <glyph glyph-name="Oacute" unicode="&#xd3;" horiz-adv-x="1593" 
d="M1366 1259q146 -195 146 -499q0 -329 -167 -547q-196 -256 -559 -256q-339 0 -533 224q-173 216 -173 546q0 298 148 510q190 272 562 272q389 0 576 -250zM1308 757q0 259 -135.5 417t-370.5 158q-228 0 -372 -156.5t-144 -461.5q0 -244 123.5 -411.5t400.5 -167.5
q263 0 380.5 188.5t117.5 433.5zM1063 1914l-267 -289h-138l183 289h222z" />
    <glyph glyph-name="Ocircumflex" unicode="&#xd4;" horiz-adv-x="1593" 
d="M1366 1259q146 -195 146 -499q0 -329 -167 -547q-196 -256 -559 -256q-339 0 -533 224q-173 216 -173 546q0 298 148 510q190 272 562 272q389 0 576 -250zM1308 757q0 259 -135.5 417t-370.5 158q-228 0 -372 -156.5t-144 -461.5q0 -244 123.5 -411.5t400.5 -167.5
q263 0 380.5 188.5t117.5 433.5zM892 1914l204 -289h-164l-135 192l-135 -192h-163l203 289h190z" />
    <glyph glyph-name="apple" unicode="&#xf000;" horiz-adv-x="1618" 
d="M730 1204q45 0 147 35t177 35q123 0 219 -66q54 -38 107 -103q-80 -68 -117 -121q-67 -96 -67 -212q0 -127 71 -229t162 -129q-38 -123 -126 -257q-133 -201 -264 -201q-52 0 -143.5 33t-154.5 33t-146.5 -34.5t-135.5 -34.5q-157 0 -308 266q-151 263 -151 516
q0 235 115.5 383t291.5 148q75 0 181.5 -31t141.5 -31zM1043 1617q0 -64 -30 -140t-95 -141q-56 -55 -111 -74q-35 -11 -106 -17q2 152 79.5 263t256.5 152q4 -13 5 -23t1 -20z" />
    <glyph glyph-name="Ograve" unicode="&#xd2;" horiz-adv-x="1593" 
d="M1366 1259q146 -195 146 -499q0 -329 -167 -547q-196 -256 -559 -256q-339 0 -533 224q-173 216 -173 546q0 298 148 510q190 272 562 272q389 0 576 -250zM1308 757q0 259 -135.5 417t-370.5 158q-228 0 -372 -156.5t-144 -461.5q0 -244 123.5 -411.5t400.5 -167.5
q263 0 380.5 188.5t117.5 433.5zM934 1625h-137l-268 289h223z" />
    <glyph glyph-name="Uacute" unicode="&#xda;" horiz-adv-x="1479" 
d="M372 1469v-908q0 -160 60 -266q89 -160 300 -160q253 0 344 173q49 94 49 253v908h202v-825q0 -271 -73 -417q-134 -266 -506 -266t-505 266q-73 146 -73 417v825h202zM1015 1875l-267 -289h-138l183 289h222z" />
    <glyph glyph-name="Ucircumflex" unicode="&#xdb;" horiz-adv-x="1479" 
d="M372 1469v-908q0 -160 60 -266q89 -160 300 -160q253 0 344 173q49 94 49 253v908h202v-825q0 -271 -73 -417q-134 -266 -506 -266t-505 266q-73 146 -73 417v825h202zM845 1875l204 -289h-164l-135 192l-135 -192h-163l203 289h190z" />
    <glyph glyph-name="Ugrave" unicode="&#xd9;" horiz-adv-x="1479" 
d="M372 1469v-908q0 -160 60 -266q89 -160 300 -160q253 0 344 173q49 94 49 253v908h202v-825q0 -271 -73 -417q-134 -266 -506 -266t-505 266q-73 146 -73 417v825h202zM887 1586h-137l-268 289h223z" />
    <glyph glyph-name="dotlessi" unicode="&#x131;" horiz-adv-x="569" 
d="M189 1066h183v-1066h-183v1066z" />
    <glyph glyph-name="circumflex" unicode="&#x2c6;" horiz-adv-x="682" 
d="M310 1502l204 -289h-164l-135 192l-135 -192h-163l203 289h190z" />
    <glyph glyph-name="tilde" unicode="&#x2dc;" horiz-adv-x="682" 
d="M263 1403q28 -12 51 -19t47 -7q56 0 80 35q13 19 18 57h105q-21 -127 -80.5 -175t-130.5 -48q-22 0 -56 8t-60 18l-53 19q-47 17 -76.5 25.5t-57.5 8.5q-35 0 -57.5 -23t-30.5 -70h-98q13 79 43 129q57 92 169 92q34 0 75.5 -10t111.5 -40z" />
    <glyph glyph-name="macron" unicode="&#xaf;" horiz-adv-x="682" 
d="M-105 1400h640v-118h-640v118z" />
    <glyph glyph-name="breve" unicode="&#x2d8;" horiz-adv-x="682" 
d="M0 1500q16 -65 47 -98q56 -59 174 -59q109 0 163 59q31 34 47 98h99q-20 -147 -103.5 -212t-225.5 -65q-177 0 -254 119q-40 62 -49 158h102z" />
    <glyph glyph-name="dotaccent" unicode="&#x2d9;" horiz-adv-x="682" 
d="M123 1445h187v-208h-187v208z" />
    <glyph glyph-name="ring" unicode="&#x2da;" horiz-adv-x="682" 
d="M215 1291q52 0 89 37t37 89t-37 89t-89 37q-51 0 -88 -37t-37 -89t37 -89t88 -37zM215 1626q86 0 147.5 -61.5t61.5 -147.5t-61.5 -147.5t-147.5 -61.5t-147 61.5t-61 147.5t61 147.5t147 61.5z" />
    <glyph glyph-name="cedilla" unicode="&#xb8;" horiz-adv-x="682" 
d="M189 0h97l-94 -128q29 9 75 9q70 0 115.5 -40.5t45.5 -115.5q0 -76 -60 -131t-184 -55q-53 0 -110 15q-32 8 -86 28l35 81q38 -14 59 -20q41 -11 74 -11q37 0 64 11q52 21 52 76q0 32 -26.5 55.5t-70.5 23.5q-22 0 -39.5 -4t-41.5 -13l-35 41z" />
    <glyph glyph-name="hungarumlaut" unicode="&#x2dd;" horiz-adv-x="682" 
d="M408 1502h214l-224 -291h-127zM75 1502h216l-227 -291h-126z" />
    <glyph glyph-name="ogonek" unicode="&#x2db;" horiz-adv-x="682" 
d="M395 0l-58 -48q-74 -60 -94.5 -91.5t-20.5 -70.5q0 -37 26.5 -64t77.5 -27q27 0 44 5t37 16v-131q-33 -14 -59 -21q-50 -13 -102 -13q-96 0 -147.5 56t-51.5 126q0 81 58 146q46 52 143 117h147z" />
    <glyph glyph-name="caron" unicode="&#x2c7;" horiz-adv-x="682" 
d="M310 1213h-190l-203 289h163l135 -192l135 192h164z" />
    <glyph glyph-name="Lslash" 
d="M-24 485v152l180 112v720h199v-602l322 197v-157l-322 -196v-536h744v-175h-943v594z" />
    <glyph glyph-name="lslash" horiz-adv-x="455" 
d="M317 0h-180v613l-178 -106v135l178 111v716h180v-604l178 109v-135l-178 -109v-730z" />
    <glyph glyph-name="Scaron" horiz-adv-x="1366" 
d="M286 474q7 -125 59 -203q99 -146 349 -146q112 0 204 32q178 62 178 222q0 120 -75.5 170.5t-237.5 87.5l-199 45q-195 44 -276 97q-140 92 -140 275q0 198 137 325t388 127q231 0 392.5 -111.5t161.5 -356.5h-187q-15 118 -64 181q-91 115 -309 115q-176 0 -253 -74
t-77 -172q0 -108 90 -158q59 -32 267 -80l206 -47q149 -34 230 -93q140 -103 140 -299q0 -244 -177.5 -349t-412.5 -105q-274 0 -429 140q-152 136 -152 368v9h187zM781 1625h-190l-203 289h163l135 -192l135 192h164z" />
    <glyph glyph-name="scaron" horiz-adv-x="1024" 
d="M239 336q8 -90 45 -138q68 -87 236 -87q100 0 176 43.5t76 134.5q0 69 -61 105q-39 22 -154 51l-143 36q-137 34 -202 76q-116 73 -116 202q0 152 109.5 246t294.5 94q242 0 349 -142q65 -87 65 -188v-6h-170q-5 61 -43 111q-62 71 -215 71q-102 0 -154.5 -39t-52.5 -103
q0 -70 69 -112q40 -25 118 -44l119 -29q194 -47 260 -91q105 -69 105 -217q0 -143 -108.5 -247t-330.5 -104q-239 0 -338.5 108.5t-106.5 268.5h173zM599 1213h-190l-203 289h163l135 -192l135 192h164z" />
    <glyph glyph-name="Zcaron" horiz-adv-x="1251" 
d="M47 165l901 1129h-835v175h1091v-171l-906 -1123h906v-175h-1157v165zM752 1586h-190l-203 289h163l135 -192l135 192h164z" />
    <glyph glyph-name="zcaron" horiz-adv-x="1024" 
d="M52 142l635 768h-588v161h830v-147l-631 -763h650v-161h-896v142zM609 1213h-190l-203 289h163l135 -192l135 192h164z" />
    <glyph glyph-name="brokenbar" horiz-adv-x="532" 
d="M144 912v578h171v-578h-171zM315 0h-171v578h171v-578z" />
    <glyph glyph-name="Eth" horiz-adv-x="1479" 
d="M33 865h132v604h562q365 0 531 -251q121 -183 121 -459q0 -244 -93 -436q-156 -323 -528 -323h-593v687h-132v178zM365 865h419v-178h-419v-517h355q101 0 166 21q116 39 190 150q59 89 85 228q15 83 15 154q0 273 -108.5 424t-349.5 151h-353v-433z" />
    <glyph glyph-name="eth" 
d="M869 550q0 177 -76 286.5t-237 109.5q-130 0 -216.5 -107t-86.5 -299q0 -153 40 -246q74 -174 278 -174q123 0 210.5 111t87.5 319zM644 1063q44 -12 83 -37q-58 89 -112 146t-165 160l-161 -112l-79 67l164 116l-149 123l132 97l75 -58.5l84 -69.5l150 105l75 -67
l-151 -107q230 -217 339 -400q132 -224 132 -470q0 -248 -133 -420.5t-383 -172.5q-237 0 -360.5 158t-123.5 404q0 263 133 407t330 144q73 0 120 -13z" />
    <glyph glyph-name="Yacute" horiz-adv-x="1366" 
d="M42 1469h232l422 -706l422 706h233l-555 -877v-592h-199v592zM966 1875l-267 -289h-138l183 289h222z" />
    <glyph glyph-name="yacute" horiz-adv-x="1024" 
d="M801 1071h199l-169 -470l-164 -450q-156 -410 -220 -500t-220 -90q-38 0 -58.5 3t-50.5 11v164q47 -13 68 -16t37 -3q50 0 73.5 16.5t39.5 40.5q5 8 36 82t45 110l-396 1102h204l287 -872zM770 1502l-267 -289h-138l183 289h222z" />
    <glyph glyph-name="Thorn" horiz-adv-x="1366" 
d="M128 1467h194v-234h456q227 0 337.5 -116.5t110.5 -307.5q0 -168 -118.5 -294t-336.5 -126h-449v-389h-194v1467zM904 598q117 58 117 222q0 69 -33 129q-62 111 -212 111h-454v-496h390q128 1 192 34z" />
    <glyph glyph-name="thorn" 
d="M879 522q0 134 -36 225q-69 175 -254 175q-113 0 -202 -92.5t-89 -289.5q0 -171 37 -262q66 -167 255 -167q133 0 211 108.5t78 302.5zM405 1021q90 62 217 62q209 0 326 -150.5t117 -391.5q0 -302 -138 -444.5t-327 -142.5q-131 0 -215 62q-46 34 -82 93v-546h-175v1892
h170v-545q57 76 107 111z" />
    <glyph glyph-name="minus" horiz-adv-x="1196" 
d="M1135 606v-168h-1043v168h1043z" />
    <glyph glyph-name="multiply" horiz-adv-x="1196" 
d="M116 903l118 118l379 -379l380 379l121 -118l-380 -380l380 -379l-121 -121l-380 379l-379 -379l-118 121l379 379z" />
    <glyph glyph-name="onesuperior" horiz-adv-x="682" 
d="M469 571h-161v583h-221v107q126 11 166 32q62 32 85 133h131v-855z" />
    <glyph glyph-name="twosuperior" horiz-adv-x="682" 
d="M255 946q149 74 193.5 110t44.5 96q0 66 -37 106t-118 40t-113 -51t-33 -124h-157q0 150 85.5 229.5t222.5 79.5q139 0 223.5 -67t84.5 -196q0 -119 -61.5 -180t-194.5 -125q-171 -77 -201 -153h457v-140h-640q0 145 70 234t174 141z" />
    <glyph glyph-name="threesuperior" horiz-adv-x="682" 
d="M154 832q7 -82 29 -114q37 -55 138 -55q97 0 138.5 42t41.5 103q0 96 -102 128q-47 14 -116 14h-25v121h12q87 0 125 13q74 25 74 105q0 48 -33.5 83.5t-105.5 35.5q-69 0 -112.5 -37.5t-44.5 -126.5h-145q0 136 82 211.5t219 75.5q132 0 212 -67t80 -165
q0 -69 -31.5 -114t-89.5 -61q84 -21 119 -75.5t35 -141.5q0 -127 -98.5 -196t-233.5 -69q-129 0 -220 65t-95 225h147z" />
    <glyph glyph-name="onehalf" horiz-adv-x="1708" 
d="M272 -38l849 1469h135l-849 -1469h-135zM471 571h-161v583h-220v107q124 11 165 32q64 33 86 133h130v-855zM1194 374q149 74 193.5 111t44.5 96q0 70 -38.5 108t-116.5 38q-90 0 -124 -65q-19 -37 -23 -110h-156q0 125 74 216.5t240 91.5q138 0 220 -69.5t82 -186.5
q0 -103 -49.5 -168t-183.5 -132q-193 -89 -224 -165h457v-139h-640q11 134 61.5 221t182.5 153z" />
    <glyph glyph-name="onequarter" horiz-adv-x="1708" 
d="M545 571h-161v583h-221v107q125 11 166 32q62 32 85 133h131v-855zM1377 860h135v-543h114v-123h-114v-194h-154v194h-408v135zM1355 317v344l-270 -344h270zM1261 1431h135l-877 -1469h-135z" />
    <glyph glyph-name="threequarters" horiz-adv-x="1708" 
d="M1396 860h135v-543h114v-123h-114v-194h-154v194h-408v135zM1374 317v344l-270 -344h270zM1453 1431l-896 -1469h-136l896 1469h136zM222 832q0 -72 34 -118q37 -51 133 -51t138 41t42 101q0 98 -101 131q-47 14 -116 14h-25v121h12q88 0 126 13q73 26 73 107
q0 43 -32 80t-108 37q-69 0 -111.5 -37t-45.5 -127h-144q0 144 85.5 215.5t215.5 71.5q131 0 211 -67t80 -165q0 -60 -30.5 -108.5t-90.5 -66.5q100 -32 135 -105q19 -41 19 -105q0 -133 -97.5 -202.5t-233.5 -69.5q-192 0 -269 119q-47 77 -47 171h147z" />
    <glyph glyph-name="franc" 
d="M353 0h-192v227h-161v175h161v1006h938v-181h-746v-412h652v-175h-652v-238h334v-175h-334v-227z" />
    <glyph glyph-name="Gbreve" horiz-adv-x="1593" 
d="M1149 1427q219 -115 268 -403h-197q-36 161 -149 234.5t-285 73.5q-204 0 -343.5 -153t-139.5 -456q0 -262 115 -426.5t375 -164.5q199 0 329.5 115.5t133.5 373.5h-460v165h645v-786h-128l-48 189q-101 -111 -179 -154q-131 -74 -333 -74q-261 0 -449 169
q-205 212 -205 582q0 369 200 587q190 208 492 208q207 0 358 -80zM545 1912q16 -65 47 -98q56 -59 174 -59q109 0 163 59q31 34 47 98h99q-20 -147 -103.5 -212t-225.5 -65q-177 0 -254 119q-40 62 -49 158h102z" />
    <glyph glyph-name="gbreve" 
d="M730 1028q51 -35 104 -102v135h166v-974q0 -204 -60 -322q-112 -218 -423 -218q-173 0 -291 77.5t-132 242.5h183q13 -72 52 -111q61 -60 192 -60q207 0 271 146q35 80 35 276v31q-54 -82 -130 -122t-201 -40q-174 0 -304.5 123.5t-130.5 408.5q0 269 131.5 420
t317.5 151q126 0 220 -62zM543 931q-190 0 -260 -178q-37 -95 -37 -249q0 -181 73.5 -275.5t197.5 -94.5q194 0 273 175q44 99 44 231q0 199 -82 295t-209 96zM317 1500q16 -65 47 -98q56 -59 174 -59q109 0 163 59q31 34 47 98h99q-20 -147 -103.5 -212t-225.5 -65
q-177 0 -254 119q-40 62 -49 158h102z" />
    <glyph glyph-name="Idotaccent" horiz-adv-x="569" 
d="M201 1469h201v-1469h-201v1469zM209 1818h187v-208h-187v208z" />
    <glyph glyph-name="Scedilla" horiz-adv-x="1366" 
d="M286 474q7 -125 59 -203q99 -146 349 -146q112 0 204 32q178 62 178 222q0 120 -75.5 170.5t-237.5 87.5l-199 45q-195 44 -276 97q-140 92 -140 275q0 198 137 325t388 127q231 0 392.5 -111.5t161.5 -356.5h-187q-15 118 -64 181q-91 115 -309 115q-176 0 -253 -74
t-77 -172q0 -108 90 -158q59 -32 267 -80l206 -47q149 -34 230 -93q140 -103 140 -299q0 -244 -177.5 -349t-384.5 -105l-61 -85q29 9 75 9q70 0 115.5 -40.5t45.5 -115.5q0 -76 -60 -131t-184 -55q-53 0 -110 15q-32 8 -86 28l35 81q38 -14 59 -20q41 -11 74 -11
q37 0 64 11q52 21 52 76q0 32 -26.5 55.5t-70.5 23.5q-22 0 -39.5 -4t-41.5 -13l-35 41l99 135q-207 0 -362 140q-152 136 -152 368v9h187z" />
    <glyph glyph-name="scedilla" horiz-adv-x="1024" 
d="M239 336q8 -90 45 -138q68 -87 236 -87q100 0 176 43.5t76 134.5q0 69 -61 105q-39 22 -154 51l-143 36q-137 34 -202 76q-116 73 -116 202q0 152 109.5 246t294.5 94q242 0 349 -142q65 -87 65 -188v-6h-170q-5 61 -43 111q-62 71 -215 71q-102 0 -154.5 -39t-52.5 -103
q0 -70 69 -112q40 -25 118 -44l119 -29q194 -47 260 -91q105 -69 105 -217q0 -143 -108.5 -247t-301.5 -104l-64 -87q29 9 75 9q70 0 115.5 -40.5t45.5 -115.5q0 -76 -60 -131t-184 -55q-53 0 -110 15q-32 8 -86 28l35 81q38 -14 59 -20q41 -11 74 -11q37 0 64 11
q52 21 52 76q0 32 -26.5 55.5t-70.5 23.5q-22 0 -39.5 -4t-41.5 -13l-35 41l100 137q-171 0 -270.5 108.5t-106.5 268.5h173z" />
    <glyph glyph-name="Cacute" horiz-adv-x="1479" 
d="M1379 1028h-194q-33 142 -131.5 225t-276.5 83q-217 0 -350.5 -152.5t-133.5 -467.5q0 -258 120.5 -418.5t359.5 -160.5q220 0 335 169q61 89 91 234h194q-26 -232 -172 -389q-175 -189 -472 -189q-256 0 -430 155q-229 205 -229 633q0 325 172 533q186 226 513 226
q279 0 433 -147t171 -334zM1001 1914l-267 -289h-138l183 289h222z" />
    <glyph glyph-name="cacute" horiz-adv-x="1024" 
d="M976 711h-175q-16 99 -73 164.5t-183 65.5q-172 0 -246 -168q-48 -109 -48 -269q0 -161 68 -271t214 -110q112 0 177.5 68.5t90.5 187.5h175q-30 -213 -150 -311.5t-307 -98.5q-210 0 -335 153.5t-125 383.5q0 282 137 439t349 157q181 0 294.5 -88t136.5 -303zM784 1502
l-267 -289h-138l183 289h222z" />
    <glyph glyph-name="Ccaron" horiz-adv-x="1479" 
d="M1379 1028h-194q-33 142 -131.5 225t-276.5 83q-217 0 -350.5 -152.5t-133.5 -467.5q0 -258 120.5 -418.5t359.5 -160.5q220 0 335 169q61 89 91 234h194q-26 -232 -172 -389q-175 -189 -472 -189q-256 0 -430 155q-229 205 -229 633q0 325 172 533q186 226 513 226
q279 0 433 -147t171 -334zM828 1625h-190l-203 289h163l135 -192l135 192h164z" />
    <glyph glyph-name="ccaron" horiz-adv-x="1024" 
d="M976 711h-175q-16 99 -73 164.5t-183 65.5q-172 0 -246 -168q-48 -109 -48 -269q0 -161 68 -271t214 -110q112 0 177.5 68.5t90.5 187.5h175q-30 -213 -150 -311.5t-307 -98.5q-210 0 -335 153.5t-125 383.5q0 282 137 439t349 157q181 0 294.5 -88t136.5 -303zM611 1213
h-190l-203 289h163l135 -192l135 192h164z" />
    <glyph glyph-name="dcroat" 
d="M553 119q125 0 205.5 107.5t80.5 308.5q0 203 -83 300.5t-205 97.5q-136 0 -220.5 -104t-84.5 -306q0 -172 73 -288t234 -116zM723 1038q48 -30 109 -105v278h-334v118h334v145h173v-145h133v-118h-133v-1211h-162v149q-63 -99 -149 -143t-197 -44q-179 0 -310 150.5
t-131 400.5q0 234 119.5 405.5t341.5 171.5q123 0 206 -52z" />
    <glyph glyph-name=".null" horiz-adv-x="0" 
 />
    <glyph glyph-name=".null" horiz-adv-x="0" 
 />
    <glyph glyph-name="BS" horiz-adv-x="0" 
 />
    <glyph glyph-name="nonmarkingreturn" unicode="&#xd;" horiz-adv-x="569" 
 />
    <glyph glyph-name="GS" horiz-adv-x="0" 
 />
    <glyph glyph-name="space.0" unicode=" " horiz-adv-x="569" 
 />
    <hkern u1="&#x31;" u2="&#x31;" k="152" />
    <hkern u1="A" u2="&#x20;" k="113" />
    <hkern u1="A" u2="&#x2019;" k="152" />
    <hkern u1="A" u2="y" k="37" />
    <hkern u1="A" u2="w" k="37" />
    <hkern u1="A" u2="v" k="37" />
    <hkern u1="A" u2="Y" k="152" />
    <hkern u1="A" u2="W" k="76" />
    <hkern u1="A" u2="V" k="152" />
    <hkern u1="A" u2="T" k="152" />
    <hkern u1="F" u2="A" k="113" />
    <hkern u1="F" u2="&#x2e;" k="227" />
    <hkern u1="F" u2="&#x2c;" k="227" />
    <hkern u1="L" u2="&#x20;" k="76" />
    <hkern u1="L" u2="&#x2019;" k="113" />
    <hkern u1="L" u2="y" k="76" />
    <hkern u1="L" u2="Y" k="152" />
    <hkern u1="L" u2="W" k="152" />
    <hkern u1="L" u2="V" k="152" />
    <hkern u1="L" u2="T" k="152" />
    <hkern u1="P" u2="&#x20;" k="37" />
    <hkern u1="P" u2="A" k="152" />
    <hkern u1="P" u2="&#x2e;" k="264" />
    <hkern u1="P" u2="&#x2c;" k="264" />
    <hkern u1="R" u2="Y" k="37" />
    <hkern u1="R" u2="W" k="37" />
    <hkern u1="R" u2="V" k="37" />
    <hkern u1="R" u2="T" k="37" />
    <hkern u1="T" u2="&#x20;" k="37" />
    <hkern u1="T" u2="y" k="113" />
    <hkern u1="T" u2="w" k="113" />
    <hkern u1="T" u2="u" k="76" />
    <hkern u1="T" u2="s" k="227" />
    <hkern u1="T" u2="r" k="76" />
    <hkern u1="T" u2="o" k="227" />
    <hkern u1="T" u2="i" k="76" />
    <hkern u1="T" u2="e" k="227" />
    <hkern u1="T" u2="c" k="227" />
    <hkern u1="T" u2="a" k="227" />
    <hkern u1="T" u2="O" k="37" />
    <hkern u1="T" u2="A" k="152" />
    <hkern u1="T" u2="&#x3b;" k="227" />
    <hkern u1="T" u2="&#x3a;" k="227" />
    <hkern u1="T" u2="&#x2e;" k="227" />
    <hkern u1="T" u2="&#x2d;" k="113" />
    <hkern u1="T" u2="&#x2c;" k="227" />
    <hkern u1="V" u2="y" k="76" />
    <hkern u1="V" u2="u" k="76" />
    <hkern u1="V" u2="r" k="76" />
    <hkern u1="V" u2="o" k="113" />
    <hkern u1="V" u2="i" k="37" />
    <hkern u1="V" u2="e" k="113" />
    <hkern u1="V" u2="a" k="152" />
    <hkern u1="V" u2="A" k="152" />
    <hkern u1="V" u2="&#x3b;" k="76" />
    <hkern u1="V" u2="&#x3a;" k="76" />
    <hkern u1="V" u2="&#x2e;" k="188" />
    <hkern u1="V" u2="&#x2d;" k="113" />
    <hkern u1="V" u2="&#x2c;" k="188" />
    <hkern u1="W" u2="y" k="18" />
    <hkern u1="W" u2="u" k="37" />
    <hkern u1="W" u2="r" k="37" />
    <hkern u1="W" u2="o" k="37" />
    <hkern u1="W" u2="e" k="37" />
    <hkern u1="W" u2="a" k="76" />
    <hkern u1="W" u2="A" k="76" />
    <hkern u1="W" u2="&#x3b;" k="37" />
    <hkern u1="W" u2="&#x3a;" k="37" />
    <hkern u1="W" u2="&#x2e;" k="113" />
    <hkern u1="W" u2="&#x2d;" k="37" />
    <hkern u1="W" u2="&#x2c;" k="113" />
    <hkern u1="Y" u2="&#x20;" k="37" />
    <hkern u1="Y" u2="v" k="113" />
    <hkern u1="Y" u2="u" k="113" />
    <hkern u1="Y" u2="q" k="188" />
    <hkern u1="Y" u2="p" k="152" />
    <hkern u1="Y" u2="o" k="188" />
    <hkern u1="Y" u2="i" k="76" />
    <hkern u1="Y" u2="e" k="188" />
    <hkern u1="Y" u2="a" k="152" />
    <hkern u1="Y" u2="A" k="152" />
    <hkern u1="Y" u2="&#x3b;" k="133" />
    <hkern u1="Y" u2="&#x3a;" k="113" />
    <hkern u1="Y" u2="&#x2e;" k="264" />
    <hkern u1="Y" u2="&#x2d;" k="188" />
    <hkern u1="Y" u2="&#x2c;" k="264" />
    <hkern u1="f" u2="&#x2019;" k="-37" />
    <hkern u1="f" u2="f" k="37" />
    <hkern u1="r" u2="&#x2019;" k="-76" />
    <hkern u1="r" u2="&#x2e;" k="113" />
    <hkern u1="r" u2="&#x2c;" k="113" />
    <hkern u1="v" u2="&#x2e;" k="152" />
    <hkern u1="v" u2="&#x2c;" k="152" />
    <hkern u1="w" u2="&#x2e;" k="113" />
    <hkern u1="w" u2="&#x2c;" k="113" />
    <hkern u1="y" u2="&#x2e;" k="152" />
    <hkern u1="y" u2="&#x2c;" k="152" />
    <hkern u1="&#x2018;" u2="&#x2018;" k="37" />
    <hkern u1="&#x2019;" u2="&#x20;" k="76" />
    <hkern u1="&#x2019;" u2="&#x2019;" k="37" />
    <hkern u1="&#x2019;" u2="s" k="37" />
    <hkern u1="&#x20;" u2="Y" k="37" />
    <hkern u1="&#x20;" u2="T" k="37" />
    <hkern u1="&#x20;" u2="A" k="113" />
  </font>
</defs></svg>
