{
  "settings": {
    "index": {
      "refresh_interval": "5s",
      "number_of_shards": "3",
      "number_of_replicas": "0"
    },
    "analysis": {
      "analyzer": {
        "autocomplete": {
          "tokenizer": "autocomplete",
          "filter": [
            "lowercase"
          ]
        },
        "autocomplete_search": {
          "tokenizer": "lowercase"
        }
      },
      "tokenizer": {
        "autocomplete": {
          "type": "edge_ngram",
          "min_gram": 2,
          "max_gram": 20,
          "token_chars": [
            "letter",
            "digit"
          ]
        }
      }
    }
  }
}